<?xml version="1.0" encoding="utf-8"?>
<!DOCTYPE eagle SYSTEM "eagle.dtd">
<eagle version="7.7.0">
<drawing>
<settings>
<setting alwaysvectorfont="no"/>
<setting verticaltext="up"/>
</settings>
<grid distance="0.05" unitdist="inch" unit="inch" style="lines" multiple="1" display="yes" altdistance="0.025" altunitdist="inch" altunit="inch"/>
<layers>
<layer number="1" name="Top" color="4" fill="1" visible="yes" active="yes"/>
<layer number="2" name="Route2" color="1" fill="3" visible="no" active="no"/>
<layer number="3" name="Route3" color="4" fill="3" visible="no" active="no"/>
<layer number="4" name="Route4" color="1" fill="4" visible="no" active="no"/>
<layer number="5" name="Route5" color="4" fill="4" visible="no" active="no"/>
<layer number="6" name="Route6" color="1" fill="8" visible="no" active="no"/>
<layer number="7" name="Route7" color="4" fill="8" visible="no" active="no"/>
<layer number="8" name="Route8" color="1" fill="2" visible="no" active="no"/>
<layer number="9" name="Route9" color="4" fill="2" visible="no" active="no"/>
<layer number="10" name="Route10" color="1" fill="7" visible="no" active="no"/>
<layer number="11" name="Route11" color="4" fill="7" visible="no" active="no"/>
<layer number="12" name="Route12" color="1" fill="5" visible="no" active="no"/>
<layer number="13" name="Route13" color="4" fill="5" visible="no" active="no"/>
<layer number="14" name="Route14" color="1" fill="6" visible="no" active="no"/>
<layer number="15" name="Route15" color="4" fill="6" visible="no" active="no"/>
<layer number="16" name="Bottom" color="1" fill="1" visible="yes" active="yes"/>
<layer number="17" name="Pads" color="2" fill="1" visible="yes" active="yes"/>
<layer number="18" name="Vias" color="2" fill="1" visible="yes" active="yes"/>
<layer number="19" name="Unrouted" color="6" fill="1" visible="yes" active="yes"/>
<layer number="20" name="Dimension" color="15" fill="1" visible="yes" active="yes"/>
<layer number="21" name="tPlace" color="7" fill="1" visible="yes" active="yes"/>
<layer number="22" name="bPlace" color="7" fill="1" visible="yes" active="yes"/>
<layer number="23" name="tOrigins" color="15" fill="1" visible="yes" active="yes"/>
<layer number="24" name="bOrigins" color="15" fill="1" visible="yes" active="yes"/>
<layer number="25" name="tNames" color="7" fill="1" visible="no" active="yes"/>
<layer number="26" name="bNames" color="7" fill="1" visible="yes" active="yes"/>
<layer number="27" name="tValues" color="7" fill="1" visible="no" active="yes"/>
<layer number="28" name="bValues" color="7" fill="1" visible="yes" active="yes"/>
<layer number="29" name="tStop" color="7" fill="3" visible="no" active="yes"/>
<layer number="30" name="bStop" color="7" fill="6" visible="no" active="yes"/>
<layer number="31" name="tCream" color="7" fill="4" visible="no" active="yes"/>
<layer number="32" name="bCream" color="7" fill="5" visible="no" active="yes"/>
<layer number="33" name="tFinish" color="6" fill="3" visible="no" active="yes"/>
<layer number="34" name="bFinish" color="6" fill="6" visible="no" active="yes"/>
<layer number="35" name="tGlue" color="7" fill="4" visible="no" active="yes"/>
<layer number="36" name="bGlue" color="7" fill="5" visible="no" active="yes"/>
<layer number="37" name="tTest" color="7" fill="1" visible="no" active="yes"/>
<layer number="38" name="bTest" color="7" fill="1" visible="no" active="yes"/>
<layer number="39" name="tKeepout" color="4" fill="11" visible="yes" active="yes"/>
<layer number="40" name="bKeepout" color="1" fill="11" visible="yes" active="yes"/>
<layer number="41" name="tRestrict" color="4" fill="10" visible="yes" active="yes"/>
<layer number="42" name="bRestrict" color="1" fill="10" visible="yes" active="yes"/>
<layer number="43" name="vRestrict" color="2" fill="10" visible="yes" active="yes"/>
<layer number="44" name="Drills" color="7" fill="1" visible="no" active="yes"/>
<layer number="45" name="Holes" color="7" fill="1" visible="no" active="yes"/>
<layer number="46" name="Milling" color="3" fill="1" visible="no" active="yes"/>
<layer number="47" name="Measures" color="7" fill="1" visible="no" active="yes"/>
<layer number="48" name="Document" color="7" fill="1" visible="yes" active="yes"/>
<layer number="49" name="Reference" color="7" fill="1" visible="yes" active="yes"/>
<layer number="50" name="dxf" color="7" fill="1" visible="no" active="no"/>
<layer number="51" name="tDocu" color="7" fill="1" visible="yes" active="yes"/>
<layer number="52" name="bDocu" color="7" fill="1" visible="yes" active="yes"/>
<layer number="53" name="tGND_GNDA" color="7" fill="1" visible="no" active="no"/>
<layer number="54" name="bGND_GNDA" color="7" fill="1" visible="no" active="no"/>
<layer number="56" name="wert" color="7" fill="1" visible="no" active="no"/>
<layer number="91" name="Nets" color="2" fill="1" visible="no" active="no"/>
<layer number="92" name="Busses" color="1" fill="1" visible="no" active="no"/>
<layer number="93" name="Pins" color="2" fill="1" visible="no" active="no"/>
<layer number="94" name="Symbols" color="4" fill="1" visible="no" active="no"/>
<layer number="95" name="Names" color="7" fill="1" visible="no" active="no"/>
<layer number="96" name="Values" color="7" fill="1" visible="no" active="no"/>
<layer number="97" name="Info" color="7" fill="1" visible="no" active="no"/>
<layer number="98" name="Guide" color="6" fill="1" visible="no" active="no"/>
<layer number="99" name="SpiceOrder" color="5" fill="1" visible="no" active="no"/>
<layer number="100" name="Muster" color="7" fill="1" visible="no" active="no"/>
<layer number="101" name="Patch_Top" color="12" fill="4" visible="yes" active="yes"/>
<layer number="102" name="Vscore" color="7" fill="1" visible="yes" active="yes"/>
<layer number="103" name="tMap" color="7" fill="1" visible="yes" active="yes"/>
<layer number="104" name="Name" color="7" fill="1" visible="yes" active="yes"/>
<layer number="105" name="tPlate" color="7" fill="1" visible="yes" active="yes"/>
<layer number="106" name="bPlate" color="7" fill="1" visible="yes" active="yes"/>
<layer number="107" name="Crop" color="7" fill="1" visible="yes" active="yes"/>
<layer number="108" name="fp8" color="7" fill="1" visible="yes" active="yes"/>
<layer number="109" name="fp9" color="7" fill="1" visible="yes" active="yes"/>
<layer number="110" name="fp0" color="7" fill="1" visible="yes" active="yes"/>
<layer number="116" name="Patch_BOT" color="9" fill="4" visible="yes" active="yes"/>
<layer number="121" name="_tsilk" color="7" fill="1" visible="yes" active="yes"/>
<layer number="122" name="_bsilk" color="7" fill="1" visible="yes" active="yes"/>
<layer number="123" name="tTestmark" color="7" fill="1" visible="yes" active="yes"/>
<layer number="124" name="bTestmark" color="7" fill="1" visible="yes" active="yes"/>
<layer number="125" name="_tNames" color="7" fill="1" visible="yes" active="yes"/>
<layer number="126" name="_bNames" color="5" fill="1" visible="yes" active="yes"/>
<layer number="131" name="tAdjust" color="7" fill="1" visible="yes" active="yes"/>
<layer number="132" name="bAdjust" color="7" fill="1" visible="yes" active="yes"/>
<layer number="144" name="Drill_legend" color="7" fill="1" visible="yes" active="yes"/>
<layer number="151" name="HeatSink" color="7" fill="1" visible="yes" active="yes"/>
<layer number="199" name="Contour" color="7" fill="1" visible="yes" active="yes"/>
<layer number="200" name="200bmp" color="1" fill="10" visible="yes" active="yes"/>
<layer number="201" name="201bmp" color="2" fill="10" visible="yes" active="yes"/>
<layer number="202" name="202bmp" color="3" fill="10" visible="yes" active="yes"/>
<layer number="203" name="203bmp" color="4" fill="10" visible="yes" active="yes"/>
<layer number="204" name="204bmp" color="5" fill="10" visible="yes" active="yes"/>
<layer number="205" name="205bmp" color="6" fill="10" visible="yes" active="yes"/>
<layer number="206" name="206bmp" color="7" fill="10" visible="yes" active="yes"/>
<layer number="207" name="207bmp" color="8" fill="10" visible="yes" active="yes"/>
<layer number="208" name="208bmp" color="9" fill="10" visible="yes" active="yes"/>
<layer number="209" name="209bmp" color="7" fill="1" visible="yes" active="yes"/>
<layer number="210" name="210bmp" color="7" fill="1" visible="yes" active="yes"/>
<layer number="211" name="211bmp" color="7" fill="1" visible="yes" active="yes"/>
<layer number="212" name="212bmp" color="7" fill="1" visible="yes" active="yes"/>
<layer number="213" name="213bmp" color="7" fill="1" visible="yes" active="yes"/>
<layer number="214" name="214bmp" color="7" fill="1" visible="yes" active="yes"/>
<layer number="215" name="215bmp" color="7" fill="1" visible="yes" active="yes"/>
<layer number="216" name="216bmp" color="7" fill="1" visible="yes" active="yes"/>
<layer number="217" name="217bmp" color="18" fill="1" visible="no" active="no"/>
<layer number="218" name="218bmp" color="19" fill="1" visible="no" active="no"/>
<layer number="219" name="219bmp" color="20" fill="1" visible="no" active="no"/>
<layer number="220" name="220bmp" color="21" fill="1" visible="no" active="no"/>
<layer number="221" name="221bmp" color="22" fill="1" visible="no" active="no"/>
<layer number="222" name="222bmp" color="23" fill="1" visible="no" active="no"/>
<layer number="223" name="223bmp" color="24" fill="1" visible="no" active="no"/>
<layer number="224" name="224bmp" color="25" fill="1" visible="no" active="no"/>
<layer number="248" name="PLCDoku" color="7" fill="1" visible="yes" active="yes"/>
<layer number="249" name="MillDoku" color="3" fill="1" visible="yes" active="yes"/>
<layer number="250" name="Descript" color="3" fill="1" visible="no" active="no"/>
<layer number="251" name="SMDround" color="12" fill="11" visible="no" active="no"/>
<layer number="252" name="BR-BS" color="4" fill="9" visible="yes" active="yes"/>
<layer number="253" name="BR-LS" color="1" fill="2" visible="yes" active="yes"/>
<layer number="254" name="cooling" color="7" fill="1" visible="yes" active="yes"/>
<layer number="255" name="ZchnBlatt" color="15" fill="1" visible="yes" active="yes"/>
</layers>
<board>
<plain>
<wire x1="-1.27" y1="0" x2="63.515" y2="0" width="0" layer="20"/>
<wire x1="63.515" y1="0" x2="63.515" y2="50.47" width="0" layer="20"/>
<wire x1="63.515" y1="50.47" x2="-1.27" y2="50.47" width="0" layer="20"/>
<wire x1="-1.27" y1="50.47" x2="-1.27" y2="0" width="0" layer="20"/>
</plain>
<libraries>
<library name="googy">
<packages>
<package name="SO08">
<description>&lt;b&gt;Small Outline Package 8&lt;/b&gt;&lt;br&gt;
NS Package M08A</description>
<wire x1="2.4" y1="1.9" x2="2.4" y2="-1.4" width="0.2032" layer="51"/>
<wire x1="2.4" y1="-1.4" x2="2.4" y2="-1.9" width="0.2032" layer="51"/>
<wire x1="2.4" y1="-1.9" x2="-2.4" y2="-1.9" width="0.2032" layer="51"/>
<wire x1="-2.4" y1="-1.9" x2="-2.4" y2="-1.4" width="0.2032" layer="51"/>
<wire x1="-2.4" y1="-1.4" x2="-2.4" y2="1.9" width="0.2032" layer="51"/>
<wire x1="-2.4" y1="1.9" x2="2.4" y2="1.9" width="0.2032" layer="51"/>
<wire x1="2.4" y1="-1.4" x2="-2.4" y2="-1.4" width="0.2032" layer="51"/>
<smd name="2" x="-0.635" y="-2.6" dx="0.6" dy="2.2" layer="1"/>
<smd name="7" x="-0.635" y="2.6" dx="0.6" dy="2.2" layer="1"/>
<smd name="1" x="-1.905" y="-2.6" dx="0.6" dy="2.2" layer="1"/>
<smd name="3" x="0.635" y="-2.6" dx="0.6" dy="2.2" layer="1"/>
<smd name="4" x="1.905" y="-2.6" dx="0.6" dy="2.2" layer="1"/>
<smd name="8" x="-1.905" y="2.6" dx="0.6" dy="2.2" layer="1"/>
<smd name="6" x="0.635" y="2.6" dx="0.6" dy="2.2" layer="1"/>
<smd name="5" x="1.905" y="2.6" dx="0.6" dy="2.2" layer="1"/>
<text x="-2.667" y="-1.905" size="1.27" layer="25" rot="R90">&gt;NAME</text>
<text x="3.937" y="-1.905" size="1.27" layer="27" rot="R90">&gt;VALUE</text>
<rectangle x1="-2.15" y1="-3.1" x2="-1.66" y2="-2" layer="51"/>
<rectangle x1="-0.88" y1="-3.1" x2="-0.39" y2="-2" layer="51"/>
<rectangle x1="0.39" y1="-3.1" x2="0.88" y2="-2" layer="51"/>
<rectangle x1="1.66" y1="-3.1" x2="2.15" y2="-2" layer="51"/>
<rectangle x1="1.66" y1="2" x2="2.15" y2="3.1" layer="51"/>
<rectangle x1="0.39" y1="2" x2="0.88" y2="3.1" layer="51"/>
<rectangle x1="-0.88" y1="2" x2="-0.39" y2="3.1" layer="51"/>
<rectangle x1="-2.15" y1="2" x2="-1.66" y2="3.1" layer="51"/>
</package>
<package name="TO220_SMD_STEHEND">
<wire x1="4.699" y1="-4.318" x2="4.953" y2="-4.064" width="0.1524" layer="21"/>
<wire x1="4.699" y1="-4.318" x2="-4.699" y2="-4.318" width="0.1524" layer="21"/>
<wire x1="-4.953" y1="-4.064" x2="-4.699" y2="-4.318" width="0.1524" layer="21"/>
<wire x1="5.08" y1="-1.143" x2="4.953" y2="-4.064" width="0.1524" layer="21"/>
<wire x1="-4.953" y1="-4.064" x2="-5.08" y2="-1.143" width="0.1524" layer="21"/>
<circle x="-4.4958" y="-3.7084" radius="0.254" width="0" layer="21"/>
<text x="-5.08" y="-6.0452" size="1.27" layer="25" ratio="10">&gt;NAME</text>
<text x="-5.08" y="-7.62" size="1.27" layer="27" ratio="10">&gt;VALUE</text>
<rectangle x1="-5.334" y1="-0.762" x2="5.334" y2="0" layer="21"/>
<rectangle x1="-5.334" y1="-1.27" x2="-3.429" y2="-0.762" layer="21"/>
<rectangle x1="-1.651" y1="-1.27" x2="-0.889" y2="-0.762" layer="21"/>
<rectangle x1="-3.429" y1="-1.27" x2="-1.651" y2="-0.762" layer="51"/>
<rectangle x1="0.889" y1="-1.27" x2="1.651" y2="-0.762" layer="21"/>
<rectangle x1="3.429" y1="-1.27" x2="5.334" y2="-0.762" layer="21"/>
<rectangle x1="-0.889" y1="-1.27" x2="0.889" y2="-0.762" layer="51"/>
<rectangle x1="1.651" y1="-1.27" x2="3.429" y2="-0.762" layer="51"/>
<smd name="1" x="-2.54" y="-3.81" dx="2.54" dy="1.27" layer="1" rot="R90"/>
<smd name="2" x="0" y="-3.81" dx="2.54" dy="1.27" layer="1" rot="R90"/>
<smd name="3" x="2.54" y="-3.81" dx="2.54" dy="1.27" layer="1" rot="R90"/>
</package>
<package name="0805_HANDSOLDER">
<description>&lt;b&gt;RESISTOR&lt;/b&gt;&lt;p&gt;
chip</description>
<smd name="1" x="-1.1" y="0" dx="1.2" dy="1.5" layer="1"/>
<smd name="2" x="1.1" y="0" dx="1.2" dy="1.5" layer="1"/>
<text x="-0.762" y="1.016" size="1.27" layer="25">&gt;NAME</text>
<text x="-0.762" y="-2.286" size="1.27" layer="27">&gt;VALUE</text>
<rectangle x1="-0.1999" y1="-0.5001" x2="0.1999" y2="0.5001" layer="35"/>
<rectangle x1="-1.05" y1="-0.625" x2="-0.6" y2="0.625" layer="51"/>
<rectangle x1="0.6" y1="-0.625" x2="1.05" y2="0.625" layer="51"/>
<rectangle x1="-1" y1="0.55" x2="1" y2="0.625" layer="51"/>
<rectangle x1="-1" y1="-0.625" x2="1" y2="-0.55" layer="51"/>
</package>
<package name="D_1206">
<description>&lt;b&gt;RESISTOR&lt;/b&gt;&lt;p&gt;
chip</description>
<rectangle x1="-0.3" y1="-0.7" x2="0.3" y2="0.7" layer="35"/>
<wire x1="-0.5" y1="0.6" x2="-0.5" y2="-0.6" width="0.05" layer="51"/>
<wire x1="-0.5" y1="-0.6" x2="0.5" y2="0" width="0.05" layer="51"/>
<wire x1="0.5" y1="0" x2="-0.5" y2="0.6" width="0.05" layer="51"/>
<smd name="C" x="1.7" y="0" dx="1.3" dy="1.803" layer="1"/>
<smd name="A" x="-1.7" y="0" dx="1.3" dy="1.803" layer="1"/>
<text x="-1.397" y="1.143" size="1.27" layer="25">&gt;NAME</text>
<text x="-1.397" y="-2.413" size="1.27" layer="27">&gt;VALUE</text>
<rectangle x1="-1.6" y1="-0.85" x2="-1.1" y2="0.85" layer="51"/>
<rectangle x1="1.1" y1="-0.85" x2="1.6" y2="0.85" layer="51"/>
<rectangle x1="-1.6" y1="-0.85" x2="1.6" y2="-0.7" layer="51"/>
<rectangle x1="-1.6" y1="0.7" x2="1.6" y2="0.85" layer="51"/>
</package>
<package name="L_FASTRON_80UH_20A">
<smd name="P$1" x="0" y="9" dx="20" dy="6" layer="1"/>
<smd name="P$2" x="0" y="-9" dx="20" dy="6" layer="1"/>
</package>
<package name="1206_HANDSOLDER">
<description>&lt;b&gt;RESISTOR&lt;/b&gt;&lt;p&gt;
chip</description>
<smd name="2" x="1.7" y="0" dx="1.3" dy="1.803" layer="1"/>
<smd name="1" x="-1.7" y="0" dx="1.3" dy="1.803" layer="1"/>
<text x="-1.397" y="1.143" size="1.27" layer="25">&gt;NAME</text>
<text x="-1.397" y="-2.413" size="1.27" layer="27">&gt;VALUE</text>
<rectangle x1="-1.6" y1="-0.85" x2="-1.1" y2="0.85" layer="51"/>
<rectangle x1="1.1" y1="-0.85" x2="1.6" y2="0.85" layer="51"/>
<rectangle x1="-0.3" y1="-0.7" x2="0.3" y2="0.7" layer="35"/>
<rectangle x1="-1.6" y1="-0.85" x2="1.6" y2="-0.7" layer="51"/>
<rectangle x1="-1.6" y1="0.7" x2="1.6" y2="0.85" layer="51"/>
</package>
<package name="TQFP32">
<smd name="1" x="-4.5" y="2.8" dx="1.5" dy="0.3" layer="1"/>
<smd name="2" x="-4.5" y="2" dx="1.5" dy="0.3" layer="1"/>
<smd name="3" x="-4.5" y="1.2" dx="1.5" dy="0.3" layer="1"/>
<smd name="4" x="-4.5" y="0.4" dx="1.5" dy="0.3" layer="1"/>
<smd name="5" x="-4.5" y="-0.4" dx="1.5" dy="0.3" layer="1"/>
<smd name="6" x="-4.5" y="-1.2" dx="1.5" dy="0.3" layer="1"/>
<smd name="7" x="-4.5" y="-2" dx="1.5" dy="0.3" layer="1"/>
<smd name="8" x="-4.5" y="-2.8" dx="1.5" dy="0.3" layer="1"/>
<smd name="9" x="-2.8" y="-4.5" dx="1.5" dy="0.3" layer="1" rot="R90"/>
<smd name="10" x="-2" y="-4.5" dx="1.5" dy="0.3" layer="1" rot="R90"/>
<smd name="11" x="-1.2" y="-4.5" dx="1.5" dy="0.3" layer="1" rot="R90"/>
<smd name="12" x="-0.4" y="-4.5" dx="1.5" dy="0.3" layer="1" rot="R90"/>
<smd name="13" x="0.4" y="-4.5" dx="1.5" dy="0.3" layer="1" rot="R90"/>
<smd name="14" x="1.2" y="-4.5" dx="1.5" dy="0.3" layer="1" rot="R90"/>
<smd name="15" x="2" y="-4.5" dx="1.5" dy="0.3" layer="1" rot="R90"/>
<smd name="16" x="2.8" y="-4.5" dx="1.5" dy="0.3" layer="1" rot="R90"/>
<smd name="17" x="4.5" y="-2.8" dx="1.5" dy="0.3" layer="1" rot="R180"/>
<smd name="18" x="4.5" y="-2" dx="1.5" dy="0.3" layer="1" rot="R180"/>
<smd name="19" x="4.5" y="-1.2" dx="1.5" dy="0.3" layer="1" rot="R180"/>
<smd name="20" x="4.5" y="-0.4" dx="1.5" dy="0.3" layer="1" rot="R180"/>
<smd name="21" x="4.5" y="0.4" dx="1.5" dy="0.3" layer="1" rot="R180"/>
<smd name="22" x="4.5" y="1.2" dx="1.5" dy="0.3" layer="1" rot="R180"/>
<smd name="23" x="4.5" y="2" dx="1.5" dy="0.3" layer="1" rot="R180"/>
<smd name="24" x="4.5" y="2.8" dx="1.5" dy="0.3" layer="1" rot="R180"/>
<smd name="25" x="2.8" y="4.5" dx="1.5" dy="0.3" layer="1" rot="R270"/>
<smd name="26" x="2" y="4.5" dx="1.5" dy="0.3" layer="1" rot="R270"/>
<smd name="27" x="1.2" y="4.5" dx="1.5" dy="0.3" layer="1" rot="R270"/>
<smd name="28" x="0.4" y="4.5" dx="1.5" dy="0.3" layer="1" rot="R270"/>
<smd name="29" x="-0.4" y="4.5" dx="1.5" dy="0.3" layer="1" rot="R270"/>
<smd name="30" x="-1.2" y="4.5" dx="1.5" dy="0.3" layer="1" rot="R270"/>
<smd name="31" x="-2" y="4.5" dx="1.5" dy="0.3" layer="1" rot="R270"/>
<smd name="32" x="-2.8" y="4.5" dx="1.5" dy="0.3" layer="1" rot="R270"/>
<wire x1="-3.5" y1="3.5" x2="3.5" y2="3.5" width="0.127" layer="21"/>
<wire x1="3.5" y1="3.5" x2="3.5" y2="-3.5" width="0.127" layer="21"/>
<wire x1="3.5" y1="-3.5" x2="-3.5" y2="-3.5" width="0.127" layer="21"/>
<wire x1="-3.5" y1="-3.5" x2="-3.5" y2="3.5" width="0.127" layer="21"/>
<circle x="-2.71" y="2.75" radius="0.259421875" width="0.127" layer="21"/>
<text x="3.81" y="3.81" size="1.27" layer="25" font="vector">&gt;NAME</text>
<text x="3.81" y="-5.08" size="1.27" layer="27" font="vector">&gt;VALUE</text>
<wire x1="-6.35" y1="6.35" x2="6.35" y2="6.35" width="0.1" layer="39"/>
<wire x1="6.35" y1="6.35" x2="6.35" y2="-6.35" width="0.1" layer="39"/>
<wire x1="6.35" y1="-6.35" x2="-6.35" y2="-6.35" width="0.1" layer="39"/>
<wire x1="-6.35" y1="-6.35" x2="-6.35" y2="6.35" width="0.1" layer="39"/>
</package>
<package name="HEADER1.27SMD">
<smd name="2" x="-2.54" y="2.54" dx="2.54" dy="0.635" layer="1" rot="R90"/>
<smd name="1" x="-2.54" y="-2.54" dx="2.54" dy="0.635" layer="1" rot="R90"/>
<smd name="4" x="-1.27" y="2.54" dx="2.54" dy="0.635" layer="1" rot="R90"/>
<smd name="3" x="-1.27" y="-2.54" dx="2.54" dy="0.635" layer="1" rot="R90"/>
<smd name="6" x="0" y="2.54" dx="2.54" dy="0.635" layer="1" rot="R90"/>
<smd name="5" x="0" y="-2.54" dx="2.54" dy="0.635" layer="1" rot="R90"/>
<smd name="8" x="1.27" y="2.54" dx="2.54" dy="0.635" layer="1" rot="R90"/>
<smd name="7" x="1.27" y="-2.54" dx="2.54" dy="0.635" layer="1" rot="R90"/>
<smd name="10" x="2.54" y="2.54" dx="2.54" dy="0.635" layer="1" rot="R90"/>
<smd name="9" x="2.54" y="-2.54" dx="2.54" dy="0.635" layer="1" rot="R90"/>
</package>
<package name="SO-18DW">
<description>&lt;b&gt;Small Outline Integrated Circuit&lt;/b&gt; wide</description>
<wire x1="5.825" y1="-3.7" x2="-5.825" y2="-3.7" width="0.2032" layer="51"/>
<wire x1="-5.825" y1="-3.7" x2="-5.825" y2="-3.2" width="0.2032" layer="51"/>
<wire x1="-5.825" y1="-3.2" x2="-5.825" y2="3.7" width="0.2032" layer="51"/>
<wire x1="-5.825" y1="3.7" x2="5.825" y2="3.7" width="0.2032" layer="51"/>
<wire x1="5.825" y1="-3.2" x2="-5.825" y2="-3.2" width="0.2032" layer="51"/>
<wire x1="5.825" y1="3.7" x2="5.825" y2="-3.2" width="0.2032" layer="51"/>
<wire x1="5.825" y1="-3.2" x2="5.825" y2="-3.7" width="0.2032" layer="51"/>
<wire x1="-6.172" y1="5.829" x2="-6.172" y2="-5.829" width="0.2" layer="39"/>
<wire x1="-6.172" y1="-5.829" x2="6.172" y2="-5.829" width="0.2" layer="39"/>
<wire x1="6.172" y1="-5.829" x2="6.1722" y2="5.8293" width="0.2" layer="39"/>
<wire x1="6.1722" y1="5.8293" x2="-6.172" y2="5.829" width="0.2" layer="39"/>
<smd name="2" x="-3.81" y="-4.6" dx="0.6" dy="2.2" layer="1"/>
<smd name="13" x="1.27" y="4.6" dx="0.6" dy="2.2" layer="1"/>
<smd name="1" x="-5.08" y="-4.6" dx="0.6" dy="2.2" layer="1"/>
<smd name="3" x="-2.54" y="-4.6" dx="0.6" dy="2.2" layer="1"/>
<smd name="4" x="-1.27" y="-4.6" dx="0.6" dy="2.2" layer="1"/>
<smd name="14" x="0" y="4.6" dx="0.6" dy="2.2" layer="1"/>
<smd name="12" x="2.54" y="4.6" dx="0.6" dy="2.2" layer="1"/>
<smd name="11" x="3.81" y="4.6" dx="0.6" dy="2.2" layer="1"/>
<smd name="6" x="1.27" y="-4.6" dx="0.6" dy="2.2" layer="1"/>
<smd name="9" x="5.08" y="-4.6" dx="0.6" dy="2.2" layer="1"/>
<smd name="5" x="0" y="-4.6" dx="0.6" dy="2.2" layer="1"/>
<smd name="7" x="2.54" y="-4.6" dx="0.6" dy="2.2" layer="1"/>
<smd name="10" x="5.08" y="4.6" dx="0.6" dy="2.2" layer="1"/>
<smd name="8" x="3.81" y="-4.6" dx="0.6" dy="2.2" layer="1"/>
<smd name="15" x="-1.27" y="4.6" dx="0.6" dy="2.2" layer="1"/>
<smd name="16" x="-2.54" y="4.6" dx="0.6" dy="2.2" layer="1"/>
<smd name="17" x="-3.81" y="4.6" dx="0.6" dy="2.2" layer="1"/>
<smd name="18" x="-5.08" y="4.6" dx="0.6" dy="2.2" layer="1"/>
<text x="-5.08" y="1.27" size="1.27" layer="25">&gt;NAME</text>
<text x="-5.08" y="-2.54" size="1.27" layer="27">&gt;VALUE</text>
<rectangle x1="-5.325" y1="-5.32" x2="-4.835" y2="-3.8" layer="51"/>
<rectangle x1="-4.055" y1="-5.32" x2="-3.565" y2="-3.8" layer="51"/>
<rectangle x1="-2.785" y1="-5.32" x2="-2.295" y2="-3.8" layer="51"/>
<rectangle x1="-1.515" y1="-5.32" x2="-1.025" y2="-3.8" layer="51"/>
<rectangle x1="-0.245" y1="-5.32" x2="0.245" y2="-3.8" layer="51"/>
<rectangle x1="1.025" y1="-5.32" x2="1.515" y2="-3.8" layer="51"/>
<rectangle x1="2.295" y1="-5.32" x2="2.785" y2="-3.8" layer="51"/>
<rectangle x1="3.565" y1="-5.32" x2="4.055" y2="-3.8" layer="51"/>
<rectangle x1="4.835" y1="-5.32" x2="5.325" y2="-3.8" layer="51"/>
<rectangle x1="4.835" y1="3.8" x2="5.325" y2="5.32" layer="51"/>
<rectangle x1="3.565" y1="3.8" x2="4.055" y2="5.32" layer="51"/>
<rectangle x1="2.295" y1="3.8" x2="2.785" y2="5.32" layer="51"/>
<rectangle x1="1.025" y1="3.8" x2="1.515" y2="5.32" layer="51"/>
<rectangle x1="-0.245" y1="3.8" x2="0.245" y2="5.32" layer="51"/>
<rectangle x1="-1.515" y1="3.8" x2="-1.025" y2="5.32" layer="51"/>
<rectangle x1="-2.785" y1="3.8" x2="-2.295" y2="5.32" layer="51"/>
<rectangle x1="-4.055" y1="3.8" x2="-3.565" y2="5.32" layer="51"/>
<rectangle x1="-5.325" y1="3.8" x2="-4.835" y2="5.32" layer="51"/>
</package>
</packages>
</library>
<library name="wirepad">
<description>&lt;b&gt;Single Pads&lt;/b&gt;&lt;p&gt;
&lt;author&gt;Created by librarian@cadsoft.de&lt;/author&gt;</description>
<packages>
<package name="SMD2,54-5,08">
<description>&lt;b&gt;SMD PAD&lt;/b&gt;</description>
<smd name="1" x="0" y="0" dx="2.54" dy="5.08" layer="1"/>
<text x="0" y="0" size="0.0254" layer="27">&gt;VALUE</text>
<text x="-1.5" y="-2.5" size="1.27" layer="25" rot="R90">&gt;NAME</text>
</package>
</packages>
</library>
</libraries>
<attributes>
</attributes>
<variantdefs>
</variantdefs>
<classes>
<class number="0" name="default" width="0" drill="0">
</class>
</classes>
<designrules name="default">
<description language="de">&lt;b&gt;EAGLE Design Rules&lt;/b&gt;
&lt;p&gt;
Die Standard-Design-Rules sind so gewählt, dass sie für 
die meisten Anwendungen passen. Sollte ihre Platine 
besondere Anforderungen haben, treffen Sie die erforderlichen
Einstellungen hier und speichern die Design Rules unter 
einem neuen Namen ab.</description>
<description language="en">&lt;b&gt;EAGLE Design Rules&lt;/b&gt;
&lt;p&gt;
The default Design Rules have been set to cover
a wide range of applications. Your particular design
may have different requirements, so please make the
necessary adjustments and save your customized
design rules under a new name.</description>
<param name="layerSetup" value="(1*16)"/>
<param name="mtCopper" value="0.035mm 0.035mm 0.035mm 0.035mm 0.035mm 0.035mm 0.035mm 0.035mm 0.035mm 0.035mm 0.035mm 0.035mm 0.035mm 0.035mm 0.035mm 0.035mm"/>
<param name="mtIsolate" value="1.5mm 0.15mm 0.2mm 0.15mm 0.2mm 0.15mm 0.2mm 0.15mm 0.2mm 0.15mm 0.2mm 0.15mm 0.2mm 0.15mm 0.2mm"/>
<param name="mdWireWire" value="8mil"/>
<param name="mdWirePad" value="8mil"/>
<param name="mdWireVia" value="8mil"/>
<param name="mdPadPad" value="8mil"/>
<param name="mdPadVia" value="8mil"/>
<param name="mdViaVia" value="8mil"/>
<param name="mdSmdPad" value="8mil"/>
<param name="mdSmdVia" value="8mil"/>
<param name="mdSmdSmd" value="8mil"/>
<param name="mdViaViaSameLayer" value="8mil"/>
<param name="mnLayersViaInSmd" value="2"/>
<param name="mdCopperDimension" value="40mil"/>
<param name="mdDrill" value="8mil"/>
<param name="mdSmdStop" value="0mil"/>
<param name="msWidth" value="10mil"/>
<param name="msDrill" value="24mil"/>
<param name="msMicroVia" value="9.99mm"/>
<param name="msBlindViaRatio" value="0.5"/>
<param name="rvPadTop" value="0.25"/>
<param name="rvPadInner" value="0.25"/>
<param name="rvPadBottom" value="0.25"/>
<param name="rvViaOuter" value="0.25"/>
<param name="rvViaInner" value="0.25"/>
<param name="rvMicroViaOuter" value="0.25"/>
<param name="rvMicroViaInner" value="0.25"/>
<param name="rlMinPadTop" value="10mil"/>
<param name="rlMaxPadTop" value="20mil"/>
<param name="rlMinPadInner" value="10mil"/>
<param name="rlMaxPadInner" value="20mil"/>
<param name="rlMinPadBottom" value="10mil"/>
<param name="rlMaxPadBottom" value="20mil"/>
<param name="rlMinViaOuter" value="8mil"/>
<param name="rlMaxViaOuter" value="20mil"/>
<param name="rlMinViaInner" value="8mil"/>
<param name="rlMaxViaInner" value="20mil"/>
<param name="rlMinMicroViaOuter" value="4mil"/>
<param name="rlMaxMicroViaOuter" value="20mil"/>
<param name="rlMinMicroViaInner" value="4mil"/>
<param name="rlMaxMicroViaInner" value="20mil"/>
<param name="psTop" value="-1"/>
<param name="psBottom" value="-1"/>
<param name="psFirst" value="-1"/>
<param name="psElongationLong" value="100"/>
<param name="psElongationOffset" value="100"/>
<param name="mvStopFrame" value="1"/>
<param name="mvCreamFrame" value="0"/>
<param name="mlMinStopFrame" value="4mil"/>
<param name="mlMaxStopFrame" value="4mil"/>
<param name="mlMinCreamFrame" value="0mil"/>
<param name="mlMaxCreamFrame" value="0mil"/>
<param name="mlViaStopLimit" value="0mil"/>
<param name="srRoundness" value="0"/>
<param name="srMinRoundness" value="0mil"/>
<param name="srMaxRoundness" value="0mil"/>
<param name="slThermalIsolate" value="10mil"/>
<param name="slThermalsForVias" value="0"/>
<param name="dpMaxLengthDifference" value="10mm"/>
<param name="dpGapFactor" value="2.5"/>
<param name="checkGrid" value="0"/>
<param name="checkAngle" value="0"/>
<param name="checkFont" value="1"/>
<param name="checkRestrict" value="1"/>
<param name="useDiameter" value="13"/>
<param name="maxErrors" value="50"/>
</designrules>
<autorouter>
<pass name="Default">
<param name="RoutingGrid" value="50mil"/>
<param name="AutoGrid" value="1"/>
<param name="Efforts" value="0"/>
<param name="TopRouterVariant" value="1"/>
<param name="tpViaShape" value="round"/>
<param name="PrefDir.1" value="|"/>
<param name="PrefDir.2" value="0"/>
<param name="PrefDir.3" value="0"/>
<param name="PrefDir.4" value="0"/>
<param name="PrefDir.5" value="0"/>
<param name="PrefDir.6" value="0"/>
<param name="PrefDir.7" value="0"/>
<param name="PrefDir.8" value="0"/>
<param name="PrefDir.9" value="0"/>
<param name="PrefDir.10" value="0"/>
<param name="PrefDir.11" value="0"/>
<param name="PrefDir.12" value="0"/>
<param name="PrefDir.13" value="0"/>
<param name="PrefDir.14" value="0"/>
<param name="PrefDir.15" value="0"/>
<param name="PrefDir.16" value="-"/>
<param name="cfVia" value="8"/>
<param name="cfNonPref" value="5"/>
<param name="cfChangeDir" value="2"/>
<param name="cfOrthStep" value="2"/>
<param name="cfDiagStep" value="3"/>
<param name="cfExtdStep" value="0"/>
<param name="cfBonusStep" value="1"/>
<param name="cfMalusStep" value="1"/>
<param name="cfPadImpact" value="4"/>
<param name="cfSmdImpact" value="4"/>
<param name="cfBusImpact" value="0"/>
<param name="cfHugging" value="3"/>
<param name="cfAvoid" value="4"/>
<param name="cfPolygon" value="10"/>
<param name="cfBase.1" value="0"/>
<param name="cfBase.2" value="1"/>
<param name="cfBase.3" value="1"/>
<param name="cfBase.4" value="1"/>
<param name="cfBase.5" value="1"/>
<param name="cfBase.6" value="1"/>
<param name="cfBase.7" value="1"/>
<param name="cfBase.8" value="1"/>
<param name="cfBase.9" value="1"/>
<param name="cfBase.10" value="1"/>
<param name="cfBase.11" value="1"/>
<param name="cfBase.12" value="1"/>
<param name="cfBase.13" value="1"/>
<param name="cfBase.14" value="1"/>
<param name="cfBase.15" value="1"/>
<param name="cfBase.16" value="0"/>
<param name="mnVias" value="20"/>
<param name="mnSegments" value="9999"/>
<param name="mnExtdSteps" value="9999"/>
<param name="mnRipupLevel" value="10"/>
<param name="mnRipupSteps" value="100"/>
<param name="mnRipupTotal" value="100"/>
</pass>
<pass name="Follow-me" refer="Default" active="yes">
</pass>
<pass name="Busses" refer="Default" active="yes">
<param name="cfNonPref" value="4"/>
<param name="cfBusImpact" value="4"/>
<param name="cfHugging" value="0"/>
<param name="mnVias" value="0"/>
</pass>
<pass name="Route" refer="Default" active="yes">
</pass>
<pass name="Optimize1" refer="Default" active="yes">
<param name="cfVia" value="99"/>
<param name="cfExtdStep" value="10"/>
<param name="cfHugging" value="1"/>
<param name="mnExtdSteps" value="1"/>
<param name="mnRipupLevel" value="0"/>
</pass>
<pass name="Optimize2" refer="Optimize1" active="yes">
<param name="cfNonPref" value="0"/>
<param name="cfChangeDir" value="6"/>
<param name="cfExtdStep" value="0"/>
<param name="cfBonusStep" value="2"/>
<param name="cfMalusStep" value="2"/>
<param name="cfPadImpact" value="2"/>
<param name="cfSmdImpact" value="2"/>
<param name="cfHugging" value="0"/>
</pass>
<pass name="Optimize3" refer="Optimize2" active="yes">
<param name="cfChangeDir" value="8"/>
<param name="cfPadImpact" value="0"/>
<param name="cfSmdImpact" value="0"/>
</pass>
<pass name="Optimize4" refer="Optimize3" active="yes">
<param name="cfChangeDir" value="25"/>
</pass>
</autorouter>
<elements>
<element name="IC1" library="googy" package="SO08" value="IR2184" x="17.78" y="30.48"/>
<element name="T2" library="googy" package="TO220_SMD_STEHEND" value="IRF3205Z" x="27.94" y="22.86" rot="R270"/>
<element name="C1" library="googy" package="1206_HANDSOLDER" value="10u" x="21.59" y="31.75" rot="R270"/>
<element name="C2" library="googy" package="1206_HANDSOLDER" value="2u2" x="17.145" y="36.195"/>
<element name="D1" library="googy" package="D_1206" value="" x="12.7" y="34.925" rot="R90"/>
<element name="R1" library="googy" package="0805_HANDSOLDER" value="1" x="20.32" y="25.4"/>
<element name="R2" library="googy" package="0805_HANDSOLDER" value="1" x="19.05" y="41.91"/>
<element name="D3" library="googy" package="TO220_SMD_STEHEND" value="D_DUAL_CCSMD_UPRIGHT" x="27.94" y="6.35" rot="R270"/>
<element name="T1" library="googy" package="TO220_SMD_STEHEND" value="IRFB3207Z" x="27.94" y="39.37" rot="R270"/>
<element name="L1" library="googy" package="L_FASTRON_80UH_20A" value="100u" x="41.91" y="29.21" rot="R90"/>
<element name="PAD4" library="wirepad" package="SMD2,54-5,08" value="" x="57.48" y="36.11" rot="R180"/>
<element name="C3" library="googy" package="1206_HANDSOLDER" value="10u" x="58.36" y="29.08" rot="R270"/>
<element name="C4" library="googy" package="1206_HANDSOLDER" value="10u" x="55.83" y="29.48" rot="R270"/>
<element name="C5" library="googy" package="1206_HANDSOLDER" value="4u7" x="33.22" y="41.87"/>
<element name="C8" library="googy" package="1206_HANDSOLDER" value="4u7" x="33.12" y="43.9"/>
<element name="C9" library="googy" package="1206_HANDSOLDER" value="4u7" x="33.22" y="45.63"/>
<element name="C10" library="googy" package="1206_HANDSOLDER" value="4u7" x="33.22" y="47.46"/>
<element name="PAD6" library="wirepad" package="SMD2,54-5,08" value="" x="37.82" y="45.14" rot="R180"/>
<element name="IC2" library="googy" package="TQFP32" value="ATMEGA8" x="13.97" y="15.24" rot="R180"/>
<element name="D2" library="googy" package="D_1206" value="" x="19.05" y="39.37" rot="R180"/>
<element name="D4" library="googy" package="D_1206" value="" x="19.05" y="22.86" rot="R180"/>
<element name="R3" library="googy" package="0805_HANDSOLDER" value="1" x="12.7" y="30.48" rot="R90"/>
<element name="U$1" library="googy" package="HEADER1.27SMD" value="" x="-1.27" y="34.29" rot="R90"/>
<element name="IC3" library="googy" package="SO-18DW" value="MCP2515" x="-1.27" y="24.13" rot="R270"/>
</elements>
<signals>
<signal name="IN">
<contactref element="IC1" pad="1"/>
<contactref element="IC2" pad="13"/>
<wire x1="13.97" y1="25.8" x2="13.97" y2="26.67" width="0" layer="19" extent="1-16"/>
<wire x1="13.57" y1="26.67" x2="15.875" y2="26.67" width="0.3048" layer="1"/>
<wire x1="15.875" y1="26.67" x2="15.875" y2="27.88" width="0.3048" layer="1"/>
<wire x1="13.57" y1="19.74" x2="13.57" y2="26.67" width="0.3048" layer="1"/>
<wire x1="13.57" y1="26.67" x2="13.97" y2="26.67" width="0" layer="19" extent="1-16"/>
</signal>
<signal name="!SD">
<contactref element="IC1" pad="2"/>
<contactref element="IC2" pad="12"/>
<wire x1="14.37" y1="25.4" x2="17.145" y2="25.4" width="0.3048" layer="1"/>
<wire x1="17.145" y1="25.4" x2="17.145" y2="27.88" width="0.3048" layer="1"/>
<wire x1="14.37" y1="19.74" x2="14.37" y2="25.4" width="0.3048" layer="1"/>
</signal>
<signal name="GND">
<contactref element="C1" pad="2"/>
<contactref element="IC1" pad="3"/>
<contactref element="T2" pad="3"/>
<contactref element="D3" pad="1"/>
<contactref element="D3" pad="3"/>
<contactref element="C3" pad="2"/>
<contactref element="C4" pad="2"/>
<contactref element="C5" pad="2"/>
<contactref element="C8" pad="2"/>
<contactref element="C9" pad="2"/>
<contactref element="C10" pad="2"/>
<wire x1="55.83" y1="27.78" x2="58.36" y2="27.38" width="1.016" layer="1"/>
<wire x1="34.92" y1="41.87" x2="34.82" y2="43.9" width="0.254" layer="1"/>
<wire x1="34.82" y1="43.9" x2="34.92" y2="45.63" width="0.254" layer="1"/>
<wire x1="34.92" y1="45.63" x2="34.92" y2="47.46" width="0.254" layer="1"/>
<contactref element="PAD6" pad="1"/>
<wire x1="37.63" y1="44.545" x2="34.92" y2="47.46" width="0.4064" layer="1"/>
<contactref element="IC2" pad="5"/>
<contactref element="IC2" pad="21"/>
<contactref element="IC2" pad="3"/>
<wire x1="18.415" y1="27.88" x2="18.415" y2="30.05" width="0.4064" layer="1"/>
<wire x1="18.415" y1="30.05" x2="21.59" y2="30.05" width="0.4064" layer="1"/>
<wire x1="24.13" y1="3.81" x2="20.32" y2="3.81" width="0.4064" layer="1"/>
<wire x1="20.32" y1="3.81" x2="20.32" y2="8.89" width="0.4064" layer="1"/>
<wire x1="20.32" y1="8.89" x2="24.13" y2="8.89" width="0.4064" layer="1"/>
<wire x1="55.83" y1="27.78" x2="58.42" y2="27.78" width="1.27" layer="1"/>
<wire x1="58.42" y1="27.78" x2="58.42" y2="3.81" width="1.27" layer="1"/>
<wire x1="58.42" y1="3.81" x2="24.13" y2="3.81" width="1.27" layer="1"/>
<contactref element="U$1" pad="8"/>
<contactref element="U$1" pad="10"/>
<contactref element="IC3" pad="9"/>
<wire x1="9.47" y1="14.84" x2="15.24" y2="14.84" width="0.3048" layer="1"/>
<wire x1="15.24" y1="14.84" x2="15.24" y2="13.97" width="0.3048" layer="1"/>
<wire x1="15.24" y1="13.97" x2="18.47" y2="13.97" width="0.3048" layer="1"/>
<wire x1="18.47" y1="13.97" x2="18.47" y2="14.04" width="0.3048" layer="1"/>
<wire x1="-5.87" y1="19.05" x2="-8.89" y2="19.05" width="0.3048" layer="1"/>
<wire x1="-8.89" y1="19.05" x2="-8.89" y2="35.56" width="0.3048" layer="1"/>
<wire x1="-8.89" y1="35.56" x2="-3.81" y2="35.56" width="0.3048" layer="1"/>
<wire x1="37.63" y1="44.545" x2="37.82" y2="45.14" width="0" layer="19" extent="1-1"/>
<wire x1="21.59" y1="30.05" x2="34.92" y2="41.87" width="0" layer="19" extent="1-1"/>
<wire x1="24.13" y1="20.32" x2="18.415" y2="27.88" width="0" layer="19" extent="1-1"/>
<wire x1="18.47" y1="15.64" x2="24.13" y2="20.32" width="0" layer="19" extent="1-1"/>
<wire x1="18.47" y1="14.04" x2="18.47" y2="15.64" width="0" layer="19" extent="1-1"/>
<wire x1="20.32" y1="8.89" x2="18.47" y2="13.97" width="0" layer="19" extent="1-1"/>
<wire x1="-5.87" y1="19.05" x2="9.47" y2="14.84" width="0" layer="19" extent="1-1"/>
<wire x1="-3.81" y1="36.83" x2="-3.81" y2="35.56" width="0.3048" layer="1"/>
</signal>
<signal name="VB">
<contactref element="D1" pad="C"/>
<contactref element="IC1" pad="8"/>
<contactref element="C2" pad="1"/>
<wire x1="15.875" y1="33.08" x2="15.875" y2="35.765" width="0.4064" layer="1"/>
<wire x1="15.875" y1="35.765" x2="15.445" y2="36.195" width="0.4064" layer="1"/>
<wire x1="15.445" y1="36.195" x2="13.13" y2="36.195" width="0.4064" layer="1"/>
<wire x1="13.13" y1="36.195" x2="12.7" y2="36.625" width="0.4064" layer="1"/>
</signal>
<signal name="VS">
<contactref element="IC1" pad="6"/>
<contactref element="T2" pad="2"/>
<contactref element="C2" pad="2"/>
<contactref element="D3" pad="2"/>
<contactref element="T1" pad="3"/>
<contactref element="L1" pad="P$1"/>
<wire x1="24.13" y1="36.83" x2="27.94" y2="36.83" width="1.27" layer="1"/>
<wire x1="27.94" y1="36.83" x2="32.91" y2="36.83" width="1.27" layer="1"/>
<wire x1="18.415" y1="33.08" x2="18.415" y2="35.765" width="0.4064" layer="1"/>
<wire x1="18.415" y1="35.765" x2="18.845" y2="36.195" width="0.4064" layer="1"/>
<wire x1="18.845" y1="36.195" x2="23.495" y2="36.195" width="0.4064" layer="1"/>
<wire x1="23.495" y1="36.195" x2="24.13" y2="36.83" width="0.4064" layer="1"/>
<wire x1="24.13" y1="22.86" x2="27.94" y2="22.86" width="1.27" layer="1"/>
<wire x1="27.94" y1="22.86" x2="27.94" y2="36.83" width="1.27" layer="1"/>
<wire x1="32.91" y1="29.21" x2="32.91" y2="25.4" width="1.27" layer="1"/>
<wire x1="32.91" y1="25.4" x2="32.91" y2="22.86" width="1.27" layer="1"/>
<wire x1="32.91" y1="22.86" x2="27.94" y2="22.86" width="1.27" layer="1"/>
<wire x1="24.13" y1="6.35" x2="33.02" y2="6.35" width="1.27" layer="1"/>
<wire x1="33.02" y1="6.35" x2="33.02" y2="25.4" width="1.27" layer="1"/>
<wire x1="33.02" y1="25.4" x2="32.91" y2="25.4" width="1.27" layer="1"/>
</signal>
<signal name="N$5">
<contactref element="T2" pad="1"/>
<contactref element="R1" pad="2"/>
<contactref element="D4" pad="A"/>
<wire x1="21.42" y1="25.4" x2="24.13" y2="25.4" width="0.4064" layer="1"/>
<wire x1="21.42" y1="25.4" x2="21.42" y2="23.53" width="0.4064" layer="1"/>
<wire x1="21.42" y1="23.53" x2="20.75" y2="22.86" width="0.4064" layer="1"/>
</signal>
<signal name="LO">
<contactref element="R1" pad="1"/>
<contactref element="IC1" pad="4"/>
<contactref element="D4" pad="C"/>
<wire x1="19.05" y1="25.83" x2="19.22" y2="25.4" width="0.4064" layer="1"/>
<wire x1="19.685" y1="27.88" x2="19.685" y2="25.865" width="0.4064" layer="1"/>
<wire x1="19.685" y1="25.865" x2="19.22" y2="25.4" width="0.4064" layer="1"/>
<wire x1="17.35" y1="22.86" x2="17.35" y2="23.53" width="0.4064" layer="1"/>
<wire x1="17.35" y1="23.53" x2="19.22" y2="25.4" width="0.4064" layer="1"/>
</signal>
<signal name="N$7">
<contactref element="R2" pad="2"/>
<contactref element="T1" pad="1"/>
<contactref element="D2" pad="A"/>
<wire x1="20.75" y1="41.91" x2="24.13" y2="41.91" width="0.4064" layer="1"/>
<wire x1="20.75" y1="39.37" x2="20.75" y2="41.91" width="0.4064" layer="1"/>
<wire x1="20.75" y1="41.91" x2="20.15" y2="41.91" width="0.4064" layer="1"/>
</signal>
<signal name="VCC">
<contactref element="IC2" pad="4"/>
<contactref element="IC2" pad="6"/>
<contactref element="U$1" pad="2"/>
<contactref element="IC3" pad="18"/>
<wire x1="18.47" y1="14.84" x2="16.51" y2="14.84" width="0.3048" layer="1"/>
<wire x1="16.51" y1="14.84" x2="16.51" y2="16.51" width="0.3048" layer="1"/>
<wire x1="16.51" y1="16.51" x2="18.47" y2="16.51" width="0.3048" layer="1"/>
<wire x1="18.47" y1="16.51" x2="18.47" y2="16.44" width="0.3048" layer="1"/>
<wire x1="-3.81" y1="31.75" x2="-3.81" y2="6.35" width="0.3048" layer="1"/>
<wire x1="-3.81" y1="6.35" x2="19.05" y2="6.35" width="0.3048" layer="1"/>
<wire x1="19.05" y1="6.35" x2="19.05" y2="10.16" width="0.3048" layer="1"/>
<wire x1="19.05" y1="10.16" x2="21.59" y2="10.16" width="0.3048" layer="1"/>
<wire x1="21.59" y1="10.16" x2="21.59" y2="14.84" width="0.3048" layer="1"/>
<wire x1="21.59" y1="14.84" x2="18.47" y2="14.84" width="0.3048" layer="1"/>
<wire x1="3.33" y1="29.21" x2="6.35" y2="29.21" width="0.3048" layer="1"/>
<wire x1="6.35" y1="29.21" x2="6.35" y2="38.1" width="0.3048" layer="1"/>
<wire x1="6.35" y1="38.1" x2="-1.905" y2="38.1" width="0.3048" layer="1"/>
<wire x1="-1.905" y1="38.1" x2="-1.905" y2="31.75" width="0.3048" layer="1"/>
<wire x1="-1.905" y1="31.75" x2="-3.81" y2="31.75" width="0.3048" layer="1"/>
</signal>
<signal name="HO">
<contactref element="IC1" pad="7"/>
<contactref element="R2" pad="1"/>
<wire x1="17.145" y1="33.08" x2="17.145" y2="41.91" width="0.4064" layer="1"/>
<wire x1="17.145" y1="41.91" x2="17.95" y2="41.91" width="0.4064" layer="1"/>
<contactref element="D2" pad="C"/>
<wire x1="17.35" y1="39.37" x2="17.35" y2="41.91" width="0.4064" layer="1"/>
<wire x1="17.35" y1="41.91" x2="17.95" y2="41.91" width="0.4064" layer="1"/>
</signal>
<signal name="VOUT">
<contactref element="L1" pad="P$2"/>
<contactref element="C3" pad="1"/>
<contactref element="C4" pad="1"/>
<wire x1="55.83" y1="31.18" x2="58.36" y2="30.78" width="1.016" layer="1"/>
<wire x1="50.91" y1="29.21" x2="55.155" y2="31.025" width="1.016" layer="1"/>
<wire x1="55.155" y1="31.025" x2="55.83" y2="31.18" width="1.016" layer="1"/>
<contactref element="PAD4" pad="1"/>
<contactref element="IC2" pad="22"/>
<via x="6.35" y="15.24" extent="1-16" drill="0.6" shape="square"/>
<wire x1="6.35" y1="15.24" x2="57.15" y2="15.24" width="0.4064" layer="16"/>
<wire x1="57.15" y1="15.24" x2="57.15" y2="24.13" width="0.4064" layer="16"/>
<via x="57.15" y="24.13" extent="1-16" drill="0.6" shape="square"/>
<wire x1="57.15" y1="24.13" x2="50.91" y2="24.13" width="0.4064" layer="1"/>
<wire x1="50.91" y1="24.13" x2="50.91" y2="29.21" width="0.4064" layer="1"/>
<wire x1="6.35" y1="15.24" x2="6.35" y2="14.04" width="0.3048" layer="1"/>
<wire x1="6.35" y1="14.04" x2="9.47" y2="14.04" width="0.3048" layer="1"/>
<wire x1="55.83" y1="31.18" x2="57.48" y2="36.11" width="0" layer="19" extent="1-1"/>
</signal>
<signal name="AVCC">
<contactref element="IC2" pad="18"/>
</signal>
<signal name="+24V">
<contactref element="C5" pad="1"/>
<contactref element="C8" pad="1"/>
<contactref element="C9" pad="1"/>
<contactref element="C10" pad="1"/>
<wire x1="31.52" y1="41.87" x2="31.440934375" y2="45.74911875" width="0.254" layer="1"/>
<wire x1="31.440934375" y1="45.74911875" x2="31.42" y2="43.9" width="0.254" layer="1"/>
<wire x1="31.42" y1="43.9" x2="31.52" y2="45.63" width="0.254" layer="1"/>
<wire x1="31.52" y1="45.63" x2="31.52" y2="47.46" width="0.254" layer="1"/>
<wire x1="31.29" y1="43.26" x2="31.52" y2="41.87" width="0.254" layer="1"/>
<contactref element="T1" pad="2"/>
<contactref element="IC2" pad="19"/>
<wire x1="24.13" y1="39.37" x2="31.29" y2="41.91" width="0.4064" layer="1"/>
<wire x1="31.29" y1="41.91" x2="31.29" y2="43.26" width="0.4064" layer="1"/>
<wire x1="31.440934375" y1="48.26" x2="31.440934375" y2="45.74911875" width="0.4064" layer="1"/>
<wire x1="9.47" y1="16.44" x2="24.13" y2="39.37" width="0" layer="19" extent="1-1"/>
</signal>
<signal name="+18V">
<contactref element="C1" pad="1"/>
<contactref element="IC1" pad="5"/>
<wire x1="19.685" y1="33.08" x2="19.685" y2="33.02" width="0.4064" layer="1"/>
<contactref element="R3" pad="1"/>
<wire x1="19.685" y1="33.08" x2="21.22" y2="33.08" width="0.4064" layer="1"/>
<wire x1="21.22" y1="33.08" x2="21.59" y2="33.45" width="0.4064" layer="1"/>
<wire x1="12.7" y1="29.38" x2="14.605" y2="29.38" width="0.4064" layer="1"/>
<wire x1="14.605" y1="29.38" x2="14.605" y2="31.115" width="0.4064" layer="1"/>
<wire x1="14.605" y1="31.115" x2="21.59" y2="31.115" width="0.4064" layer="1"/>
<wire x1="21.59" y1="31.115" x2="21.59" y2="33.45" width="0.4064" layer="1"/>
</signal>
<signal name="N$1">
<contactref element="R3" pad="2"/>
<contactref element="D1" pad="A"/>
<wire x1="12.7" y1="33.225" x2="12.7" y2="31.58" width="0.4064" layer="1"/>
</signal>
<signal name="MOSI">
<contactref element="U$1" pad="1"/>
<contactref element="IC2" pad="15"/>
<contactref element="IC3" pad="14"/>
<wire x1="11.97" y1="19.74" x2="11.97" y2="24.13" width="0.3048" layer="1"/>
<wire x1="11.97" y1="24.13" x2="3.33" y2="24.13" width="0.3048" layer="1"/>
<wire x1="1.27" y1="31.75" x2="1.27" y2="24.13" width="0.3048" layer="1"/>
<wire x1="1.27" y1="24.13" x2="3.33" y2="24.13" width="0.3048" layer="1"/>
</signal>
<signal name="MISO">
<contactref element="U$1" pad="9"/>
<contactref element="IC2" pad="16"/>
<contactref element="IC3" pad="15"/>
<wire x1="11.17" y1="19.74" x2="11.17" y2="21.59" width="0.3048" layer="1"/>
<wire x1="11.17" y1="21.59" x2="7.62" y2="21.59" width="0.3048" layer="1"/>
<via x="7.62" y="21.59" extent="1-16" drill="0.6" shape="square"/>
<wire x1="7.62" y1="21.59" x2="7.62" y2="25.4" width="0.3048" layer="16"/>
<via x="7.62" y="25.4" extent="1-16" drill="0.6" shape="square"/>
<wire x1="7.62" y1="25.4" x2="3.33" y2="25.4" width="0.3048" layer="1"/>
<wire x1="1.27" y1="36.83" x2="3.81" y2="36.83" width="0.3048" layer="1"/>
<via x="3.81" y="36.83" extent="1-16" drill="0.6" shape="square"/>
<wire x1="3.81" y1="36.83" x2="7.62" y2="36.83" width="0.3048" layer="16"/>
<wire x1="7.62" y1="36.83" x2="7.62" y2="25.4" width="0.3048" layer="16"/>
</signal>
<signal name="SCK">
<contactref element="U$1" pad="7"/>
<contactref element="IC2" pad="17"/>
<contactref element="IC3" pad="13"/>
<wire x1="3.33" y1="22.86" x2="6.35" y2="22.86" width="0.3048" layer="1"/>
<wire x1="6.35" y1="22.86" x2="6.35" y2="17.78" width="0.3048" layer="1"/>
<wire x1="6.35" y1="17.78" x2="9.47" y2="17.78" width="0.3048" layer="1"/>
<wire x1="9.47" y1="17.78" x2="9.47" y2="18.04" width="0.3048" layer="1"/>
<wire x1="1.27" y1="35.56" x2="-1.27" y2="35.56" width="0.3048" layer="1"/>
<wire x1="-1.27" y1="35.56" x2="-1.27" y2="22.86" width="0.3048" layer="1"/>
<wire x1="-1.27" y1="22.86" x2="3.33" y2="22.86" width="0.3048" layer="1"/>
</signal>
<signal name="RESET">
<contactref element="U$1" pad="5"/>
<contactref element="IC2" pad="29"/>
<wire x1="14.37" y1="7.62" x2="14.37" y2="10.74" width="0.3048" layer="1"/>
<via x="14.37" y="7.62" extent="1-16" drill="0.6" shape="square"/>
<wire x1="14.37" y1="7.62" x2="5.08" y2="7.62" width="0.3048" layer="16"/>
<wire x1="5.08" y1="7.62" x2="5.08" y2="34.29" width="0.3048" layer="16"/>
<via x="5.08" y="34.29" extent="1-16" drill="0.6" shape="square"/>
<wire x1="5.08" y1="34.29" x2="1.27" y2="34.29" width="0.3048" layer="1"/>
</signal>
<signal name="N$2">
<contactref element="IC2" pad="14"/>
<contactref element="IC3" pad="16"/>
<wire x1="12.77" y1="19.74" x2="12.77" y2="26.67" width="0.3048" layer="1"/>
<wire x1="12.77" y1="26.67" x2="3.33" y2="26.67" width="0.3048" layer="1"/>
</signal>
</signals>
</board>
</drawing>
</eagle>
