<?xml version="1.0" encoding="utf-8"?>
<!DOCTYPE eagle SYSTEM "eagle.dtd">
<eagle version="6.6.0">
<drawing>
<settings>
<setting alwaysvectorfont="no"/>
<setting verticaltext="up"/>
</settings>
<grid distance="0.1" unitdist="inch" unit="inch" style="lines" multiple="1" display="no" altdistance="0.01" altunitdist="inch" altunit="inch"/>
<layers>
<layer number="1" name="Top" color="4" fill="1" visible="no" active="no"/>
<layer number="2" name="Route2" color="1" fill="3" visible="no" active="no"/>
<layer number="3" name="Route3" color="4" fill="3" visible="no" active="no"/>
<layer number="4" name="Route4" color="1" fill="4" visible="no" active="no"/>
<layer number="5" name="Route5" color="4" fill="4" visible="no" active="no"/>
<layer number="6" name="Route6" color="1" fill="8" visible="no" active="no"/>
<layer number="7" name="Route7" color="4" fill="8" visible="no" active="no"/>
<layer number="8" name="Route8" color="1" fill="2" visible="no" active="no"/>
<layer number="9" name="Route9" color="4" fill="2" visible="no" active="no"/>
<layer number="10" name="Route10" color="1" fill="7" visible="no" active="no"/>
<layer number="11" name="Route11" color="4" fill="7" visible="no" active="no"/>
<layer number="12" name="Route12" color="1" fill="5" visible="no" active="no"/>
<layer number="13" name="Route13" color="4" fill="5" visible="no" active="no"/>
<layer number="14" name="Route14" color="1" fill="6" visible="no" active="no"/>
<layer number="15" name="Route15" color="4" fill="6" visible="no" active="no"/>
<layer number="16" name="Bottom" color="1" fill="1" visible="no" active="no"/>
<layer number="17" name="Pads" color="2" fill="1" visible="no" active="no"/>
<layer number="18" name="Vias" color="2" fill="1" visible="no" active="no"/>
<layer number="19" name="Unrouted" color="6" fill="1" visible="no" active="no"/>
<layer number="20" name="Dimension" color="15" fill="1" visible="no" active="no"/>
<layer number="21" name="tPlace" color="7" fill="1" visible="no" active="no"/>
<layer number="22" name="bPlace" color="7" fill="1" visible="no" active="no"/>
<layer number="23" name="tOrigins" color="15" fill="1" visible="no" active="no"/>
<layer number="24" name="bOrigins" color="15" fill="1" visible="no" active="no"/>
<layer number="25" name="tNames" color="7" fill="1" visible="no" active="no"/>
<layer number="26" name="bNames" color="7" fill="1" visible="no" active="no"/>
<layer number="27" name="tValues" color="7" fill="1" visible="no" active="no"/>
<layer number="28" name="bValues" color="7" fill="1" visible="no" active="no"/>
<layer number="29" name="tStop" color="7" fill="3" visible="no" active="no"/>
<layer number="30" name="bStop" color="7" fill="6" visible="no" active="no"/>
<layer number="31" name="tCream" color="7" fill="4" visible="no" active="no"/>
<layer number="32" name="bCream" color="7" fill="5" visible="no" active="no"/>
<layer number="33" name="tFinish" color="6" fill="3" visible="no" active="no"/>
<layer number="34" name="bFinish" color="6" fill="6" visible="no" active="no"/>
<layer number="35" name="tGlue" color="7" fill="4" visible="no" active="no"/>
<layer number="36" name="bGlue" color="7" fill="5" visible="no" active="no"/>
<layer number="37" name="tTest" color="7" fill="1" visible="no" active="no"/>
<layer number="38" name="bTest" color="7" fill="1" visible="no" active="no"/>
<layer number="39" name="tKeepout" color="4" fill="11" visible="no" active="no"/>
<layer number="40" name="bKeepout" color="1" fill="11" visible="no" active="no"/>
<layer number="41" name="tRestrict" color="4" fill="10" visible="no" active="no"/>
<layer number="42" name="bRestrict" color="1" fill="10" visible="no" active="no"/>
<layer number="43" name="vRestrict" color="2" fill="10" visible="no" active="no"/>
<layer number="44" name="Drills" color="7" fill="1" visible="no" active="no"/>
<layer number="45" name="Holes" color="7" fill="1" visible="no" active="no"/>
<layer number="46" name="Milling" color="3" fill="1" visible="no" active="no"/>
<layer number="47" name="Measures" color="7" fill="1" visible="no" active="no"/>
<layer number="48" name="Document" color="7" fill="1" visible="no" active="no"/>
<layer number="49" name="Reference" color="7" fill="1" visible="no" active="no"/>
<layer number="50" name="dxf" color="7" fill="1" visible="no" active="no"/>
<layer number="51" name="tDocu" color="7" fill="1" visible="no" active="no"/>
<layer number="52" name="bDocu" color="7" fill="1" visible="no" active="no"/>
<layer number="91" name="Nets" color="2" fill="1" visible="yes" active="yes"/>
<layer number="92" name="Busses" color="1" fill="1" visible="yes" active="yes"/>
<layer number="93" name="Pins" color="2" fill="1" visible="no" active="yes"/>
<layer number="94" name="Symbols" color="4" fill="1" visible="yes" active="yes"/>
<layer number="95" name="Names" color="7" fill="1" visible="yes" active="yes"/>
<layer number="96" name="Values" color="7" fill="1" visible="yes" active="yes"/>
<layer number="97" name="Info" color="7" fill="1" visible="yes" active="yes"/>
<layer number="98" name="Guide" color="6" fill="1" visible="yes" active="yes"/>
<layer number="250" name="Descript" color="3" fill="1" visible="no" active="no"/>
<layer number="251" name="SMDround" color="12" fill="11" visible="no" active="no"/>
</layers>
<schematic xreflabel="%F%N/%S.%C%R" xrefpart="/%S.%C%R">
<libraries>
<library name="battery">
<description>&lt;b&gt;Lithium Batteries and NC Accus&lt;/b&gt;&lt;p&gt;
&lt;author&gt;Created by librarian@cadsoft.de&lt;/author&gt;</description>
<packages>
<package name="SL-340/P3.6V">
<description>&lt;b&gt;LI BATTERY&lt;/b&gt; Sonnenschein</description>
<wire x1="-3.048" y1="0" x2="-2.032" y2="0" width="0.1524" layer="21"/>
<wire x1="-5.588" y1="0" x2="-4.572" y2="0" width="0.1524" layer="21"/>
<wire x1="-2.54" y1="-0.508" x2="-2.54" y2="0.508" width="0.1524" layer="21"/>
<wire x1="5.715" y1="2.54" x2="5.715" y2="0" width="0.254" layer="21"/>
<wire x1="2.54" y1="0" x2="4.445" y2="0" width="0.1524" layer="21"/>
<wire x1="5.715" y1="0" x2="7.62" y2="0" width="0.1524" layer="21"/>
<wire x1="5.715" y1="0" x2="5.715" y2="-2.54" width="0.254" layer="21"/>
<wire x1="6.223" y1="1.524" x2="7.239" y2="1.524" width="0.1524" layer="21"/>
<wire x1="6.731" y1="2.032" x2="6.731" y2="1.016" width="0.1524" layer="21"/>
<circle x="0" y="0" radius="11.303" width="0.1524" layer="21"/>
<circle x="0" y="0" radius="9.271" width="0.1524" layer="21"/>
<pad name="+" x="0" y="0" drill="1.016" diameter="2.159" shape="octagon"/>
<pad name="-" x="-7.62" y="0" drill="1.016" diameter="2.159" shape="octagon"/>
<text x="-2.54" y="11.811" size="1.27" layer="25" ratio="10">&gt;NAME</text>
<text x="-5.08" y="-5.08" size="1.27" layer="27" ratio="10">&gt;VALUE</text>
<text x="-5.715" y="5.08" size="1.27" layer="21" ratio="10">Lithium</text>
<text x="-5.715" y="2.54" size="1.27" layer="21" ratio="10">3V6</text>
<rectangle x1="4.445" y1="-1.27" x2="5.08" y2="1.27" layer="21"/>
</package>
</packages>
<symbols>
<symbol name="1V2">
<wire x1="-0.635" y1="0.635" x2="-0.635" y2="0" width="0.4064" layer="94"/>
<wire x1="-2.54" y1="0" x2="-0.635" y2="0" width="0.1524" layer="94"/>
<wire x1="-0.635" y1="0" x2="-0.635" y2="-0.635" width="0.4064" layer="94"/>
<wire x1="0.635" y1="2.54" x2="0.635" y2="0" width="0.4064" layer="94"/>
<wire x1="0.635" y1="0" x2="2.54" y2="0" width="0.1524" layer="94"/>
<wire x1="0.635" y1="0" x2="0.635" y2="-2.54" width="0.4064" layer="94"/>
<text x="-1.27" y="3.175" size="1.778" layer="95">&gt;NAME</text>
<text x="-1.27" y="-5.08" size="1.778" layer="96">&gt;VALUE</text>
<pin name="+" x="5.08" y="0" visible="pad" length="short" direction="pas" rot="R180"/>
<pin name="-" x="-5.08" y="0" visible="pad" length="short" direction="pas"/>
</symbol>
</symbols>
<devicesets>
<deviceset name="SL340P" prefix="G">
<description>&lt;b&gt;LI BATTERY&lt;/b&gt; Sonnenschein&lt;p&gt;
SL-340 P 3.6 V</description>
<gates>
<gate name="G$1" symbol="1V2" x="0" y="0"/>
</gates>
<devices>
<device name="" package="SL-340/P3.6V">
<connects>
<connect gate="G$1" pin="+" pad="+"/>
<connect gate="G$1" pin="-" pad="-"/>
</connects>
<technologies>
<technology name=""/>
</technologies>
</device>
</devices>
</deviceset>
</devicesets>
</library>
<library name="googy">
<packages>
<package name="1206_HANDSOLDER">
<description>&lt;b&gt;RESISTOR&lt;/b&gt;&lt;p&gt;
chip</description>
<smd name="2" x="1.7" y="0" dx="1.3" dy="1.803" layer="1"/>
<smd name="1" x="-1.7" y="0" dx="1.3" dy="1.803" layer="1"/>
<text x="-1.397" y="1.143" size="1.27" layer="25">&gt;NAME</text>
<text x="-1.397" y="-2.413" size="1.27" layer="27">&gt;VALUE</text>
<rectangle x1="-1.6" y1="-0.85" x2="-1.1" y2="0.85" layer="51"/>
<rectangle x1="1.1" y1="-0.85" x2="1.6" y2="0.85" layer="51"/>
<rectangle x1="-0.3" y1="-0.7" x2="0.3" y2="0.7" layer="35"/>
<rectangle x1="-1.6" y1="-0.85" x2="1.6" y2="-0.7" layer="51"/>
<rectangle x1="-1.6" y1="0.7" x2="1.6" y2="0.85" layer="51"/>
</package>
<package name="R_SHUNT_4X2">
<smd name="1" x="0" y="1.4" dx="4" dy="1.4" layer="1"/>
<smd name="2" x="0" y="-1.4" dx="4" dy="1.4" layer="1"/>
<wire x1="-1.9" y1="1.1" x2="1.9" y2="1.1" width="0.127" layer="21"/>
<wire x1="1.9" y1="1.1" x2="1.9" y2="-1.1" width="0.127" layer="21"/>
<wire x1="1.9" y1="-1.1" x2="-1.9" y2="-1.1" width="0.127" layer="21"/>
<wire x1="-1.9" y1="-1.1" x2="-1.9" y2="1.1" width="0.127" layer="21"/>
<text x="2.1" y="-2" size="1.27" layer="21">&gt;VALUE</text>
<text x="2.1" y="0.8" size="1.27" layer="21">&gt;NAME</text>
</package>
<package name="0805_HANDSOLDER">
<description>&lt;b&gt;RESISTOR&lt;/b&gt;&lt;p&gt;
chip</description>
<smd name="1" x="-1.1" y="0" dx="1.2" dy="1.5" layer="1"/>
<smd name="2" x="1.1" y="0" dx="1.2" dy="1.5" layer="1"/>
<text x="-0.762" y="1.016" size="1.27" layer="25">&gt;NAME</text>
<text x="-0.762" y="-2.286" size="1.27" layer="27">&gt;VALUE</text>
<rectangle x1="-0.1999" y1="-0.5001" x2="0.1999" y2="0.5001" layer="35"/>
<rectangle x1="-1.05" y1="-0.625" x2="-0.6" y2="0.625" layer="51"/>
<rectangle x1="0.6" y1="-0.625" x2="1.05" y2="0.625" layer="51"/>
<rectangle x1="-1" y1="0.55" x2="1" y2="0.625" layer="51"/>
<rectangle x1="-1" y1="-0.625" x2="1" y2="-0.55" layer="51"/>
</package>
<package name="R2512">
<wire x1="-3.3" y1="1.7" x2="3.3" y2="1.7" width="0.1" layer="21"/>
<wire x1="-3.3" y1="-1.7" x2="3.3" y2="-1.7" width="0.1" layer="21"/>
<wire x1="-3.3" y1="1.7" x2="-3.3" y2="-1.7" width="0.1" layer="21"/>
<wire x1="3.3" y1="1.7" x2="3.3" y2="-1.7" width="0.1" layer="21"/>
<smd name="P$1" x="-2.9" y="0" dx="3.68" dy="1.65" layer="1" rot="R90"/>
<smd name="P$2" x="2.9" y="0" dx="3.68" dy="1.65" layer="1" rot="R90"/>
</package>
</packages>
<symbols>
<symbol name="R_EU">
<wire x1="-2.54" y1="-0.889" x2="2.54" y2="-0.889" width="0.254" layer="94"/>
<wire x1="2.54" y1="0.889" x2="-2.54" y2="0.889" width="0.254" layer="94"/>
<wire x1="2.54" y1="-0.889" x2="2.54" y2="0.889" width="0.254" layer="94"/>
<wire x1="-2.54" y1="-0.889" x2="-2.54" y2="0.889" width="0.254" layer="94"/>
<text x="-3.81" y="1.4986" size="1.778" layer="95">&gt;NAME</text>
<text x="-3.81" y="-3.302" size="1.778" layer="96">&gt;VALUE</text>
<pin name="2" x="5.08" y="0" visible="off" length="short" direction="pas" swaplevel="1" rot="R180"/>
<pin name="1" x="-5.08" y="0" visible="off" length="short" direction="pas" swaplevel="1"/>
</symbol>
</symbols>
<devicesets>
<deviceset name="R" prefix="R" uservalue="yes">
<gates>
<gate name="G$1" symbol="R_EU" x="0" y="0"/>
</gates>
<devices>
<device name="R1206" package="1206_HANDSOLDER">
<connects>
<connect gate="G$1" pin="1" pad="1"/>
<connect gate="G$1" pin="2" pad="2"/>
</connects>
<technologies>
<technology name=""/>
</technologies>
</device>
<device name="SHUNT_4MMX2MM" package="R_SHUNT_4X2">
<connects>
<connect gate="G$1" pin="1" pad="1"/>
<connect gate="G$1" pin="2" pad="2"/>
</connects>
<technologies>
<technology name=""/>
</technologies>
</device>
<device name="R0805" package="0805_HANDSOLDER">
<connects>
<connect gate="G$1" pin="1" pad="1"/>
<connect gate="G$1" pin="2" pad="2"/>
</connects>
<technologies>
<technology name=""/>
</technologies>
</device>
<device name="R2512_SHUNT" package="R2512">
<connects>
<connect gate="G$1" pin="1" pad="P$1"/>
<connect gate="G$1" pin="2" pad="P$2"/>
</connects>
<technologies>
<technology name=""/>
</technologies>
</device>
</devices>
</deviceset>
</devicesets>
</library>
<library name="linear">
<description>&lt;b&gt;Linear Devices&lt;/b&gt;&lt;p&gt;
Operational amplifiers,  comparators, voltage regulators, ADCs, DACs, etc.&lt;p&gt;
&lt;author&gt;Created by librarian@cadsoft.de&lt;/author&gt;</description>
<packages>
<package name="DIL08">
<description>&lt;b&gt;Dual In Line Package&lt;/b&gt;</description>
<wire x1="5.08" y1="2.921" x2="-5.08" y2="2.921" width="0.1524" layer="21"/>
<wire x1="-5.08" y1="-2.921" x2="5.08" y2="-2.921" width="0.1524" layer="21"/>
<wire x1="5.08" y1="2.921" x2="5.08" y2="-2.921" width="0.1524" layer="21"/>
<wire x1="-5.08" y1="2.921" x2="-5.08" y2="1.016" width="0.1524" layer="21"/>
<wire x1="-5.08" y1="-2.921" x2="-5.08" y2="-1.016" width="0.1524" layer="21"/>
<wire x1="-5.08" y1="1.016" x2="-5.08" y2="-1.016" width="0.1524" layer="21" curve="-180"/>
<pad name="1" x="-3.81" y="-3.81" drill="0.8128" diameter="1.27" rot="R90"/>
<pad name="2" x="-1.27" y="-3.81" drill="0.8128" diameter="1.27" rot="R90"/>
<pad name="7" x="-1.27" y="3.81" drill="0.8128" diameter="1.27" rot="R90"/>
<pad name="8" x="-3.81" y="3.81" drill="0.8128" diameter="1.27" rot="R90"/>
<pad name="3" x="1.27" y="-3.81" drill="0.8128" diameter="1.27" rot="R90"/>
<pad name="4" x="3.81" y="-3.81" drill="0.8128" diameter="1.27" rot="R90"/>
<pad name="6" x="1.27" y="3.81" drill="0.8128" diameter="1.27" rot="R90"/>
<pad name="5" x="3.81" y="3.81" drill="0.8128" diameter="1.27" rot="R90"/>
<text x="-5.334" y="-2.921" size="1.27" layer="25" ratio="10" rot="R90">&gt;NAME</text>
<text x="-3.556" y="-0.635" size="1.27" layer="27" ratio="10">&gt;VALUE</text>
</package>
<package name="SO08">
<description>&lt;b&gt;Small Outline Package 8&lt;/b&gt;&lt;br&gt;
NS Package M08A</description>
<wire x1="2.4" y1="1.9" x2="2.4" y2="-1.4" width="0.2032" layer="51"/>
<wire x1="2.4" y1="-1.4" x2="2.4" y2="-1.9" width="0.2032" layer="51"/>
<wire x1="2.4" y1="-1.9" x2="-2.4" y2="-1.9" width="0.2032" layer="51"/>
<wire x1="-2.4" y1="-1.9" x2="-2.4" y2="-1.4" width="0.2032" layer="51"/>
<wire x1="-2.4" y1="-1.4" x2="-2.4" y2="1.9" width="0.2032" layer="51"/>
<wire x1="-2.4" y1="1.9" x2="2.4" y2="1.9" width="0.2032" layer="51"/>
<wire x1="2.4" y1="-1.4" x2="-2.4" y2="-1.4" width="0.2032" layer="51"/>
<smd name="2" x="-0.635" y="-2.6" dx="0.6" dy="2.2" layer="1"/>
<smd name="7" x="-0.635" y="2.6" dx="0.6" dy="2.2" layer="1"/>
<smd name="1" x="-1.905" y="-2.6" dx="0.6" dy="2.2" layer="1"/>
<smd name="3" x="0.635" y="-2.6" dx="0.6" dy="2.2" layer="1"/>
<smd name="4" x="1.905" y="-2.6" dx="0.6" dy="2.2" layer="1"/>
<smd name="8" x="-1.905" y="2.6" dx="0.6" dy="2.2" layer="1"/>
<smd name="6" x="0.635" y="2.6" dx="0.6" dy="2.2" layer="1"/>
<smd name="5" x="1.905" y="2.6" dx="0.6" dy="2.2" layer="1"/>
<text x="-2.667" y="-1.905" size="1.27" layer="25" rot="R90">&gt;NAME</text>
<text x="3.937" y="-1.905" size="1.27" layer="27" rot="R90">&gt;VALUE</text>
<rectangle x1="-2.15" y1="-3.1" x2="-1.66" y2="-2" layer="51"/>
<rectangle x1="-0.88" y1="-3.1" x2="-0.39" y2="-2" layer="51"/>
<rectangle x1="0.39" y1="-3.1" x2="0.88" y2="-2" layer="51"/>
<rectangle x1="1.66" y1="-3.1" x2="2.15" y2="-2" layer="51"/>
<rectangle x1="1.66" y1="2" x2="2.15" y2="3.1" layer="51"/>
<rectangle x1="0.39" y1="2" x2="0.88" y2="3.1" layer="51"/>
<rectangle x1="-0.88" y1="2" x2="-0.39" y2="3.1" layer="51"/>
<rectangle x1="-2.15" y1="2" x2="-1.66" y2="3.1" layer="51"/>
</package>
</packages>
<symbols>
<symbol name="OPAMP">
<wire x1="-5.08" y1="5.08" x2="-5.08" y2="-5.08" width="0.4064" layer="94"/>
<wire x1="-5.08" y1="-5.08" x2="5.08" y2="0" width="0.4064" layer="94"/>
<wire x1="5.08" y1="0" x2="-5.08" y2="5.08" width="0.4064" layer="94"/>
<wire x1="-3.81" y1="3.175" x2="-3.81" y2="1.905" width="0.1524" layer="94"/>
<wire x1="-4.445" y1="2.54" x2="-3.175" y2="2.54" width="0.1524" layer="94"/>
<wire x1="-4.445" y1="-2.54" x2="-3.175" y2="-2.54" width="0.1524" layer="94"/>
<text x="2.54" y="3.175" size="1.778" layer="95">&gt;NAME</text>
<text x="2.54" y="-5.08" size="1.778" layer="96">&gt;VALUE</text>
<pin name="-IN" x="-7.62" y="-2.54" visible="pad" length="short" direction="in"/>
<pin name="+IN" x="-7.62" y="2.54" visible="pad" length="short" direction="in"/>
<pin name="OUT" x="7.62" y="0" visible="pad" length="short" direction="out" rot="R180"/>
</symbol>
<symbol name="PWR+-">
<text x="1.27" y="3.175" size="0.8128" layer="93" rot="R90">V+</text>
<text x="1.27" y="-4.445" size="0.8128" layer="93" rot="R90">V-</text>
<pin name="V+" x="0" y="7.62" visible="pad" length="middle" direction="pwr" rot="R270"/>
<pin name="V-" x="0" y="-7.62" visible="pad" length="middle" direction="pwr" rot="R90"/>
</symbol>
</symbols>
<devicesets>
<deviceset name="LM358" prefix="IC">
<description>&lt;b&gt;OP AMP&lt;/b&gt; also LM158; LM258; LM2904&lt;p&gt;
Source: http://cache.national.com/ds/LM/LM158.pdf</description>
<gates>
<gate name="A" symbol="OPAMP" x="15.24" y="10.16" swaplevel="1"/>
<gate name="B" symbol="OPAMP" x="15.24" y="-12.7" swaplevel="1"/>
<gate name="P" symbol="PWR+-" x="15.24" y="10.16" addlevel="request"/>
</gates>
<devices>
<device name="N" package="DIL08">
<connects>
<connect gate="A" pin="+IN" pad="3"/>
<connect gate="A" pin="-IN" pad="2"/>
<connect gate="A" pin="OUT" pad="1"/>
<connect gate="B" pin="+IN" pad="5"/>
<connect gate="B" pin="-IN" pad="6"/>
<connect gate="B" pin="OUT" pad="7"/>
<connect gate="P" pin="V+" pad="8"/>
<connect gate="P" pin="V-" pad="4"/>
</connects>
<technologies>
<technology name=""/>
</technologies>
</device>
<device name="D" package="SO08">
<connects>
<connect gate="A" pin="+IN" pad="3"/>
<connect gate="A" pin="-IN" pad="2"/>
<connect gate="A" pin="OUT" pad="1"/>
<connect gate="B" pin="+IN" pad="5"/>
<connect gate="B" pin="-IN" pad="6"/>
<connect gate="B" pin="OUT" pad="7"/>
<connect gate="P" pin="V+" pad="8"/>
<connect gate="P" pin="V-" pad="4"/>
</connects>
<technologies>
<technology name=""/>
</technologies>
</device>
<device name="MX" package="SO08">
<connects>
<connect gate="A" pin="+IN" pad="3"/>
<connect gate="A" pin="-IN" pad="2"/>
<connect gate="A" pin="OUT" pad="1"/>
<connect gate="B" pin="+IN" pad="5"/>
<connect gate="B" pin="-IN" pad="6"/>
<connect gate="B" pin="OUT" pad="7"/>
<connect gate="P" pin="V+" pad="8"/>
<connect gate="P" pin="V-" pad="4"/>
</connects>
<technologies>
<technology name=""/>
</technologies>
</device>
</devices>
</deviceset>
</devicesets>
</library>
<library name="supply1">
<description>&lt;b&gt;Supply Symbols&lt;/b&gt;&lt;p&gt;
 GND, VCC, 0V, +5V, -5V, etc.&lt;p&gt;
 Please keep in mind, that these devices are necessary for the
 automatic wiring of the supply signals.&lt;p&gt;
 The pin name defined in the symbol is identical to the net which is to be wired automatically.&lt;p&gt;
 In this library the device names are the same as the pin names of the symbols, therefore the correct signal names appear next to the supply symbols in the schematic.&lt;p&gt;
 &lt;author&gt;Created by librarian@cadsoft.de&lt;/author&gt;</description>
<packages>
</packages>
<symbols>
<symbol name="GND">
<wire x1="-1.905" y1="0" x2="1.905" y2="0" width="0.254" layer="94"/>
<text x="-2.54" y="-2.54" size="1.778" layer="96">&gt;VALUE</text>
<pin name="GND" x="0" y="2.54" visible="off" length="short" direction="sup" rot="R270"/>
</symbol>
</symbols>
<devicesets>
<deviceset name="GND" prefix="GND">
<description>&lt;b&gt;SUPPLY SYMBOL&lt;/b&gt;</description>
<gates>
<gate name="1" symbol="GND" x="0" y="0"/>
</gates>
<devices>
<device name="">
<technologies>
<technology name=""/>
</technologies>
</device>
</devices>
</deviceset>
</devicesets>
</library>
<library name="wirepad">
<description>&lt;b&gt;Single Pads&lt;/b&gt;&lt;p&gt;
&lt;author&gt;Created by librarian@cadsoft.de&lt;/author&gt;</description>
<packages>
<package name="SMD1,27-2,54">
<description>&lt;b&gt;SMD PAD&lt;/b&gt;</description>
<smd name="1" x="0" y="0" dx="1.27" dy="2.54" layer="1"/>
<text x="0" y="0" size="0.0254" layer="27">&gt;VALUE</text>
<text x="-0.8" y="-2.4" size="1.27" layer="25" rot="R90">&gt;NAME</text>
</package>
</packages>
<symbols>
<symbol name="PAD">
<wire x1="-1.016" y1="1.016" x2="1.016" y2="-1.016" width="0.254" layer="94"/>
<wire x1="-1.016" y1="-1.016" x2="1.016" y2="1.016" width="0.254" layer="94"/>
<text x="-1.143" y="1.8542" size="1.778" layer="95">&gt;NAME</text>
<text x="-1.143" y="-3.302" size="1.778" layer="96">&gt;VALUE</text>
<pin name="P" x="2.54" y="0" visible="off" length="short" direction="pas" rot="R180"/>
</symbol>
</symbols>
<devicesets>
<deviceset name="SMD2" prefix="PAD" uservalue="yes">
<description>&lt;b&gt;SMD PAD&lt;/b&gt;</description>
<gates>
<gate name="1" symbol="PAD" x="0" y="0"/>
</gates>
<devices>
<device name="" package="SMD1,27-2,54">
<connects>
<connect gate="1" pin="P" pad="1"/>
</connects>
<technologies>
<technology name=""/>
</technologies>
</device>
</devices>
</deviceset>
</devicesets>
</library>
</libraries>
<attributes>
</attributes>
<variantdefs>
</variantdefs>
<classes>
<class number="0" name="default" width="0" drill="0">
</class>
</classes>
<parts>
<part name="G1" library="battery" deviceset="SL340P" device=""/>
<part name="G2" library="battery" deviceset="SL340P" device=""/>
<part name="G3" library="battery" deviceset="SL340P" device=""/>
<part name="G4" library="battery" deviceset="SL340P" device=""/>
<part name="G5" library="battery" deviceset="SL340P" device=""/>
<part name="G6" library="battery" deviceset="SL340P" device=""/>
<part name="R1" library="googy" deviceset="R" device="R1206"/>
<part name="IC1" library="linear" deviceset="LM358" device="D"/>
<part name="GND1" library="supply1" deviceset="GND" device=""/>
<part name="GND2" library="supply1" deviceset="GND" device=""/>
<part name="GND3" library="supply1" deviceset="GND" device=""/>
<part name="GND4" library="supply1" deviceset="GND" device=""/>
<part name="GND5" library="supply1" deviceset="GND" device=""/>
<part name="GND6" library="supply1" deviceset="GND" device=""/>
<part name="R2" library="googy" deviceset="R" device="R0805"/>
<part name="R3" library="googy" deviceset="R" device="R0805"/>
<part name="R4" library="googy" deviceset="R" device="R0805"/>
<part name="GND7" library="supply1" deviceset="GND" device=""/>
<part name="R5" library="googy" deviceset="R" device="R0805"/>
<part name="R6" library="googy" deviceset="R" device="R0805"/>
<part name="R7" library="googy" deviceset="R" device="R0805"/>
<part name="R8" library="googy" deviceset="R" device="R0805"/>
<part name="R9" library="googy" deviceset="R" device="R0805"/>
<part name="PAD1" library="wirepad" deviceset="SMD2" device=""/>
<part name="PAD2" library="wirepad" deviceset="SMD2" device=""/>
<part name="PAD3" library="wirepad" deviceset="SMD2" device=""/>
<part name="PAD4" library="wirepad" deviceset="SMD2" device=""/>
<part name="PAD5" library="wirepad" deviceset="SMD2" device=""/>
</parts>
<sheets>
<sheet>
<plain>
</plain>
<instances>
<instance part="G1" gate="G$1" x="114.3" y="25.4" rot="R90"/>
<instance part="G2" gate="G$1" x="114.3" y="35.56" rot="R90"/>
<instance part="G3" gate="G$1" x="114.3" y="45.72" rot="R90"/>
<instance part="G4" gate="G$1" x="114.3" y="55.88" rot="R90"/>
<instance part="G5" gate="G$1" x="114.3" y="66.04" rot="R90"/>
<instance part="G6" gate="G$1" x="114.3" y="76.2" rot="R90"/>
<instance part="R1" gate="G$1" x="96.52" y="25.4" rot="R90"/>
<instance part="IC1" gate="A" x="144.78" y="35.56" smashed="yes">
<attribute name="NAME" x="147.32" y="38.735" size="1.778" layer="95"/>
<attribute name="VALUE" x="147.32" y="30.48" size="1.778" layer="96"/>
</instance>
<instance part="IC1" gate="B" x="144.78" y="48.26"/>
<instance part="GND1" gate="1" x="114.3" y="17.78"/>
<instance part="GND2" gate="1" x="119.38" y="45.72"/>
<instance part="GND3" gate="1" x="121.92" y="5.08"/>
<instance part="GND4" gate="1" x="114.3" y="2.54"/>
<instance part="GND5" gate="1" x="106.68" y="5.08"/>
<instance part="GND6" gate="1" x="81.28" y="88.9"/>
<instance part="R2" gate="G$1" x="129.54" y="40.64"/>
<instance part="R3" gate="G$1" x="129.54" y="30.48"/>
<instance part="R4" gate="G$1" x="129.54" y="38.1"/>
<instance part="GND7" gate="1" x="124.46" y="35.56"/>
<instance part="R5" gate="G$1" x="147.32" y="30.48"/>
<instance part="R6" gate="G$1" x="129.54" y="50.8"/>
<instance part="R7" gate="G$1" x="129.54" y="45.72"/>
<instance part="R8" gate="G$1" x="147.32" y="43.18"/>
<instance part="R9" gate="G$1" x="129.54" y="48.26"/>
<instance part="IC1" gate="P" x="81.28" y="99.06"/>
<instance part="PAD1" gate="1" x="170.18" y="48.26" rot="R180"/>
<instance part="PAD2" gate="1" x="170.18" y="35.56" rot="R180"/>
<instance part="PAD3" gate="1" x="170.18" y="22.86" rot="R180"/>
<instance part="PAD4" gate="1" x="116.84" y="106.68" rot="R180"/>
<instance part="PAD5" gate="1" x="83.82" y="91.44" rot="R180"/>
</instances>
<busses>
</busses>
<nets>
<net name="N$1" class="0">
<segment>
<pinref part="G6" gate="G$1" pin="-"/>
<pinref part="G5" gate="G$1" pin="+"/>
</segment>
</net>
<net name="N$2" class="0">
<segment>
<pinref part="G5" gate="G$1" pin="-"/>
<pinref part="G4" gate="G$1" pin="+"/>
</segment>
</net>
<net name="N$3" class="0">
<segment>
<pinref part="G4" gate="G$1" pin="-"/>
<pinref part="G3" gate="G$1" pin="+"/>
<pinref part="R6" gate="G$1" pin="1"/>
<wire x1="114.3" y1="50.8" x2="124.46" y2="50.8" width="0.1524" layer="91"/>
</segment>
</net>
<net name="N$4" class="0">
<segment>
<pinref part="G3" gate="G$1" pin="-"/>
<pinref part="G2" gate="G$1" pin="+"/>
<pinref part="R2" gate="G$1" pin="1"/>
<wire x1="124.46" y1="40.64" x2="121.92" y2="40.64" width="0.1524" layer="91"/>
<pinref part="R7" gate="G$1" pin="1"/>
<wire x1="121.92" y1="40.64" x2="114.3" y2="40.64" width="0.1524" layer="91"/>
<wire x1="124.46" y1="45.72" x2="121.92" y2="45.72" width="0.1524" layer="91"/>
<wire x1="121.92" y1="45.72" x2="121.92" y2="40.64" width="0.1524" layer="91"/>
</segment>
</net>
<net name="N$5" class="0">
<segment>
<pinref part="G2" gate="G$1" pin="-"/>
<pinref part="G1" gate="G$1" pin="+"/>
<pinref part="R3" gate="G$1" pin="1"/>
<wire x1="124.46" y1="30.48" x2="114.3" y2="30.48" width="0.1524" layer="91"/>
<wire x1="124.46" y1="30.48" x2="124.46" y2="22.86" width="0.1524" layer="91"/>
<wire x1="124.46" y1="22.86" x2="167.64" y2="22.86" width="0.1524" layer="91"/>
<pinref part="PAD3" gate="1" pin="P"/>
</segment>
</net>
<net name="N$6" class="0">
<segment>
<pinref part="R2" gate="G$1" pin="2"/>
<pinref part="IC1" gate="A" pin="+IN"/>
<wire x1="134.62" y1="40.64" x2="134.62" y2="38.1" width="0.1524" layer="91"/>
<wire x1="134.62" y1="38.1" x2="137.16" y2="38.1" width="0.1524" layer="91"/>
<pinref part="R4" gate="G$1" pin="2"/>
<junction x="134.62" y="38.1"/>
</segment>
</net>
<net name="N$7" class="0">
<segment>
<pinref part="R3" gate="G$1" pin="2"/>
<pinref part="IC1" gate="A" pin="-IN"/>
<wire x1="137.16" y1="30.48" x2="137.16" y2="33.02" width="0.1524" layer="91"/>
<pinref part="R5" gate="G$1" pin="1"/>
<wire x1="134.62" y1="30.48" x2="137.16" y2="30.48" width="0.1524" layer="91"/>
<wire x1="137.16" y1="30.48" x2="142.24" y2="30.48" width="0.1524" layer="91"/>
</segment>
</net>
<net name="GND" class="0">
<segment>
<pinref part="R4" gate="G$1" pin="1"/>
<pinref part="GND7" gate="1" pin="GND"/>
</segment>
<segment>
<pinref part="R9" gate="G$1" pin="1"/>
<wire x1="124.46" y1="48.26" x2="119.38" y2="48.26" width="0.1524" layer="91"/>
<pinref part="GND2" gate="1" pin="GND"/>
</segment>
<segment>
<pinref part="IC1" gate="P" pin="V-"/>
<pinref part="GND6" gate="1" pin="GND"/>
<pinref part="PAD5" gate="1" pin="P"/>
<junction x="81.28" y="91.44"/>
<pinref part="PAD5" gate="1" pin="P"/>
</segment>
<segment>
<pinref part="G1" gate="G$1" pin="-"/>
<pinref part="GND1" gate="1" pin="GND"/>
</segment>
</net>
<net name="N$8" class="0">
<segment>
<pinref part="R5" gate="G$1" pin="2"/>
<pinref part="IC1" gate="A" pin="OUT"/>
<wire x1="152.4" y1="30.48" x2="152.4" y2="35.56" width="0.1524" layer="91"/>
<wire x1="152.4" y1="35.56" x2="167.64" y2="35.56" width="0.1524" layer="91"/>
<pinref part="PAD2" gate="1" pin="P"/>
</segment>
</net>
<net name="N$9" class="0">
<segment>
<pinref part="R6" gate="G$1" pin="2"/>
<pinref part="IC1" gate="B" pin="+IN"/>
<wire x1="134.62" y1="50.8" x2="137.16" y2="50.8" width="0.1524" layer="91"/>
<pinref part="R9" gate="G$1" pin="2"/>
<wire x1="134.62" y1="50.8" x2="134.62" y2="48.26" width="0.1524" layer="91"/>
</segment>
</net>
<net name="N$11" class="0">
<segment>
<pinref part="R8" gate="G$1" pin="2"/>
<pinref part="IC1" gate="B" pin="OUT"/>
<wire x1="152.4" y1="43.18" x2="152.4" y2="48.26" width="0.1524" layer="91"/>
<wire x1="152.4" y1="48.26" x2="167.64" y2="48.26" width="0.1524" layer="91"/>
<pinref part="PAD1" gate="1" pin="P"/>
</segment>
</net>
<net name="N$10" class="0">
<segment>
<pinref part="R7" gate="G$1" pin="2"/>
<pinref part="IC1" gate="B" pin="-IN"/>
<wire x1="134.62" y1="45.72" x2="137.16" y2="45.72" width="0.1524" layer="91"/>
<pinref part="R8" gate="G$1" pin="1"/>
<wire x1="137.16" y1="45.72" x2="137.16" y2="43.18" width="0.1524" layer="91"/>
<wire x1="137.16" y1="43.18" x2="142.24" y2="43.18" width="0.1524" layer="91"/>
</segment>
</net>
<net name="N$12" class="0">
<segment>
<pinref part="G6" gate="G$1" pin="+"/>
<pinref part="IC1" gate="P" pin="V+"/>
<wire x1="114.3" y1="81.28" x2="114.3" y2="106.68" width="0.1524" layer="91"/>
<wire x1="114.3" y1="106.68" x2="81.28" y2="106.68" width="0.1524" layer="91"/>
<pinref part="PAD4" gate="1" pin="P"/>
<junction x="114.3" y="106.68"/>
</segment>
</net>
</nets>
</sheet>
</sheets>
</schematic>
</drawing>
</eagle>
